[
  {
    "ID": 1,
    "Y": 16.657393,
    "DDMMYY": "27-11-2021",
    "Year": 2021,
    "Month": 11,
    "Date": 27,
    "Place (as close as possible)": "Center of Phaya Gyi village, Twante Tsp",
    "Township Raw": "Twante",
    "State/Region": "Yangon",
    "Detail": "More than 30 soldiers and police cordoned off the house of protest leader Ko Htet, erecting a sign and blocking it with restricted ropes. ",
    "Shorten form of Source": "DVB, 2021",
    "Source": "http://burmese.dvb.no/archives/502884",
    "Images": [
      {
        "id": "attsUGjr6LzNCVqDB",
        "width": 730,
        "height": 365,
        "url": "https://dl.airtable.com/.attachments/ff4669eea3dfe981b6788a9ad6fd7ec2/dc6b29de/n001.jpeg?ts=1654838747&userId=usrplMOfuVm33ljLk&cs=74da36d19342ec84",
        "filename": "n001.jpeg",
        "size": 97824,
        "type": "image/jpeg",
        "thumbnails": {
          "small": {
            "url": "https://dl.airtable.com/.attachmentThumbnails/14008bf642c9eaf84160462444191f1b/63801681?ts=1654838747&userId=usrplMOfuVm33ljLk&cs=a7f4ab03146e4149",
            "width": 72,
            "height": 36
          },
          "large": {
            "url": "https://dl.airtable.com/.attachmentThumbnails/1a71b57c9de8429fe6c031734d5e121d/f777f2a2?ts=1654838747&userId=usrplMOfuVm33ljLk&cs=1ddcb9a3608b7121",
            "width": 730,
            "height": 365
          },
          "full": {
            "url": "https://dl.airtable.com/.attachmentThumbnails/007511c9ea69986ec6053fe339c31661/beea79e1?ts=1654838747&userId=usrplMOfuVm33ljLk&cs=6d5ac3e8327851db",
            "width": 3000,
            "height": 3000
          }
        }
      }
    ],
    "Image source": "http://burmese.dvb.no/archives/502884",
    "x copy": 96.016559,
    "Township": "Twantay",
    "TspCentroidLat": 16.7444520169079,
    "TspCentroidLon": 95.9527307498435,
    "ImageIds": ["attsUGjr6LzNCVqDB/jpeg"]
  },
  {
    "ID": 2,
    "Y": 14.0613402400359,
    "DDMMYY": "22-11-2021",
    "Year": 2021,
    "Month": 11,
    "Date": 22,
    "Place (as close as possible)": "Kyauk Sin village",
    "Township Raw": "Laung Lon",
    "State/Region": "Tanintharyi",
    "Detail": "At 10:30 that night, soldiers came to the house of MP Bo Htwe in Kyauk Sin village and sealed it. The sealed letter stated that the house was banned from use due to its links to terrorist insurgents.",
    "Shorten form of Source": "Myanmar Now, 2021",
    "Source": "https://www.myanmar-now.org/mm/news/9426; http://www.daweiwatch.com/2021/11/23/news/37600/",
    "x copy": 98.0803978269042,
    "Township": "Launglon",
    "TspCentroidLat": 13.9186286529512,
    "TspCentroidLon": 98.1352516050933
  },
  {
    "ID": 3,
    "Y": 14.047158,
    "DDMMYY": "22-11-2021",
    "Year": 2021,
    "Month": 11,
    "Date": 22,
    "Place (as close as possible)": "Min village",
    "Township Raw": "Laung Lon",
    "State/Region": "Tanintharyi",
    "Detail": "Livestock and Agriculture Minister Myint San's house was cordoned off by about 60 soldiers in four military vehicles.",
    "Shorten form of Source": "Myanmar Now, 2021",
    "Source": "https://www.myanmar-now.org/mm/news/9426; http://www.daweiwatch.com/2021/11/23/news/37600/daweiwatch.com/2021/11/23/news/37600/",
    "x copy": 98.15338,
    "Township": "Launglon",
    "TspCentroidLat": 13.9186286529512,
    "TspCentroidLon": 98.1352516050933
  },
  {
    "ID": 4,
    "Y": 22.2828765264824,
    "DDMMYY": "28-10-2021",
    "Year": 2021,
    "Month": 10,
    "Date": 28,
    "Place (as close as possible)": "Padauk Myaing ward",
    "Township Raw": "Ayar Taw",
    "State/Region": "Sagaing",
    "Detail": "The house and grocery store of U Than Shwe (former mayor of Ayar Taw Municipality, and CDM leader) were closed down by military",
    "Shorten form of Source": "DVB, 2021",
    "Source": "https://burmese.dvb.no/archives/496883",
    "x copy": 95.4446863311836,
    "Township": "Ayadaw",
    "TspCentroidLat": 22.2964188651175,
    "TspCentroidLon": 95.4268155953183
  },
  {
    "ID": 5,
    "Y": 19.6345122843634,
    "DDMMYY": "23-11-2021",
    "Year": 2021,
    "Month": 11,
    "Date": 23,
    "Place (as close as possible)": "Lewe Tsp",
    "Township Raw": "Leway",
    "State/Region": "Mandalay",
    "Detail": "On November 23, the military council closed the house of Kyaw Myint Oo in Lewe Tsp, a member of the Amyotha Hluttaw (National Assembly) in Mandalay Division Constituency 11. ",
    "Shorten form of Source": "BBC Burmese, 2021",
    "Source": "https://www.bbc.com/burmese/topics/c404v08d3rwt",
    "x copy": 96.11030175806,
    "Township": "Lewe",
    "TspCentroidLat": 19.6165312291107,
    "TspCentroidLon": 96.0239549595856
  },
  {
    "ID": 6,
    "Y": 19.5885034864012,
    "DDMMYY": "23-11-2021",
    "Year": 2021,
    "Month": 11,
    "Date": 23,
    "Place (as close as possible)": "Thitpot Pin village",
    "Township Raw": "Leway",
    "State/Region": "Mandalay",
    "Detail": "On November 23, the house of NLD members Ko Tun Tun Win in Thitpot Pin Village, Leway Township was sealed",
    "Shorten form of Source": "BBC Burmese, 2021",
    "Source": "https://www.bbc.com/burmese/topics/c404v08d3rwt",
    "x copy": 95.9350372868631,
    "Township": "Lewe",
    "TspCentroidLat": 19.6165312291107,
    "TspCentroidLon": 96.0239549595856
  },
  {
    "ID": 7,
    "Y": 21.089992,
    "DDMMYY": "23-11-2021",
    "Year": 2021,
    "Month": 11,
    "Date": 23,
    "Place (as close as possible)": "Zeegone village",
    "Township Raw": "Pubwa Thiri",
    "State/Region": "Mandalay",
    "Detail": "On November 23, Ko Yan Myo Aung's house in Zeegone Village, Zee Gone Tract, Pubwa Thiri Township were also sealed",
    "Shorten form of Source": "BBC Burmese, 2021",
    "Source": "https://www.bbc.com/burmese/topics/c404v08d3rwt",
    "x copy": 96.002067,
    "Township": "Poke Ba Thi Ri",
    "TspCentroidLat": 19.8949761930354,
    "TspCentroidLon": 96.1911618908391
  },
  {
    "ID": 8,
    "Y": 16.904951,
    "DDMMYY": "27-11-2021",
    "Year": 2021,
    "Month": 11,
    "Date": 27,
    "Place (as close as possible)": "Khayan tsp",
    "Township Raw": "Khayan",
    "State/Region": "Yangon",
    "Detail": "The house of one of the leaders of Khayan Township People's Defense Force (PDF Khayan) has been sealed off",
    "x copy": 96.560101,
    "Township": "Kayan",
    "TspCentroidLat": 16.9007458681177,
    "TspCentroidLon": 96.5926484364046
  },
  {
    "ID": 9,
    "Y": 22.102107,
    "DDMMYY": "30-10-2021",
    "Year": 2021,
    "Month": 10,
    "Date": 30,
    "Place (as close as possible)": "29th Street, Industrial Zone",
    "Township Raw": "Monywa",
    "State/Region": "Sagaing",
    "Detail": "Two houses on 29th Street, Industrial Zone, Monywa, Sagaing Division were raided on October 29, according to locals. The house was confiscated today as state treasury\n after it was revealed that a perpetrator of the violence was allowed to hide and stay temporarily, according to Vine.",
    "x copy": 95.165372,
    "Township": "Monywa",
    "TspCentroidLat": 22.1392338167285,
    "TspCentroidLon": 95.2083012833765
  },
  {
    "ID": 10,
    "Y": 13.8924133295506,
    "DDMMYY": "24-11-2021",
    "Year": 2021,
    "Month": 11,
    "Date": 24,
    "Place (as close as possible)": "ဝံတွင်း village, Ye Phyu village tract",
    "Township Raw": "Laung Lon",
    "State/Region": "Tanintharyi",
    "Detail": "Local youth leader and founder of Youth Development Institute Ko Hein Htet's family home sealedd. Hadn't been lived in for 3-4 months. ",
    "Shorten form of Source": "Dawei Watch, 2021",
    "Source": "http://www.daweiwatch.com/2021/11/24/news/37632/",
    "x copy": 98.1487036813745,
    "Township": "Launglon",
    "TspCentroidLat": 13.9186286529512,
    "TspCentroidLon": 98.1352516050933
  },
  {
    "ID": 11,
    "Y": 14.2467444408529,
    "DDMMYY": "15-12-2021",
    "Year": 2021,
    "Month": 12,
    "Date": 15,
    "Place (as close as possible)": "Hnin Si Street, Ye Phyu town",
    "Township Raw": "Laung Lon",
    "State/Region": "Tanintharyi",
    "Detail": "Sealed home of NLD township official U Thein Zaw Oo",
    "Shorten form of Source": "Dawei Watch, 2021",
    "Source": "http://www.daweiwatch.com/2021/12/15/news/38201/?fbclid=IwAR0_aniTCG9P7s9v6VLLCcKqvUvcSK1MMlkDklkdkiPsw4ljB_PLVJciF74",
    "x copy": 98.2052373325446,
    "Township": "Launglon",
    "TspCentroidLat": 13.9186286529512,
    "TspCentroidLon": 98.1352516050933
  },
  {
    "ID": 12,
    "Y": 14.2447907201027,
    "DDMMYY": "15-12-2021",
    "Year": 2021,
    "Month": 12,
    "Date": 15,
    "Place (as close as possible)": "၎င်း ward, Ye Dan Kone St. Ye Phyu town",
    "Township Raw": "Laung Lon",
    "State/Region": "Tanintharyi",
    "Detail": "Sealed home of NLD township official U Aung Zaw Htwe",
    "Shorten form of Source": "Dawei Watch, 2021",
    "Source": "http://www.daweiwatch.com/2021/12/15/news/38201/?fbclid=IwAR0_aniTCG9P7s9v6VLLCcKqvUvcSK1MMlkDklkdkiPsw4ljB_PLVJciF74",
    "x copy": 98.2068202329844,
    "Township": "Launglon",
    "TspCentroidLat": 13.9186286529512,
    "TspCentroidLon": 98.1352516050933
  },
  {
    "ID": 13,
    "Y": 13.636059024019,
    "DDMMYY": "15-12-2021",
    "Year": 2021,
    "Month": 12,
    "Date": 15,
    "Place (as close as possible)": "Kywe Min Kon village",
    "Township Raw": "Thayet Kyaung",
    "State/Region": "Tanintharyi",
    "Detail": "Seized home of NLD party member and former VTA U Soe Thein's house was sealed and all his moveable property carted out by the SAC and taken in a truck.",
    "Shorten form of Source": "Dawei Watch, 2021",
    "Source": "http://www.daweiwatch.com/2021/12/15/news/38198/",
    "x copy": 98.3422239748784,
    "Township": "Thayetchaung",
    "TspCentroidLat": 13.6913013442252,
    "TspCentroidLon": 98.4430971094508
  },
  {
    "ID": 14,
    "Y": 25.4168446820073,
    "DDMMYY": "16-12-2021",
    "Year": 2021,
    "Month": 12,
    "Date": 16,
    "Place (as close as possible)": "Siputa ward",
    "Township Raw": "Myitkyina",
    "State/Region": "Kachin",
    "Detail": "Dr. Tu Kawng, NUG Environment Minister's home was sealed",
    "Shorten form of Source": "RFA, 2021",
    "Source": "https://www.rfa.org/burmese/news/military-seize-dr-tu-hkawng-house-12162021071531.html",
    "x copy": 97.4034678133124,
    "Township": "Myitkyina",
    "TspCentroidLat": 25.3525942204837,
    "TspCentroidLon": 97.2029466040039
  },
  {
    "ID": 15,
    "Y": 25.3717113320503,
    "DDMMYY": "14-12-2021",
    "Year": 2021,
    "Month": 12,
    "Date": 14,
    "Place (as close as possible)": "Namti",
    "Township Raw": "Mogaung",
    "State/Region": "Kachin",
    "Detail": "2020 elected MP from Mogaung U Win Naing who is also a CRPH member, had two houses sealed by the SAC. ",
    "Shorten form of Source": "RFA, 2021",
    "Source": "https://www.rfa.org/burmese/news/military-seize-dr-tu-hkawng-house-12162021071531.html",
    "x copy": 97.0068165473706,
    "Township": "Mogaung",
    "TspCentroidLat": 25.3218472199443,
    "TspCentroidLon": 96.9069600377243
  },
  {
    "ID": 16,
    "Y": 21.9663826848383,
    "DDMMYY": "16-12-2021",
    "Year": 2021,
    "Month": 12,
    "Date": 16,
    "Place (as close as possible)": "Sein Pann ward",
    "Township Raw": "Maha Aung Myay",
    "State/Region": "Mandalay",
    "Detail": "NUG Minister of Justice U Thein's home seized.",
    "Shorten form of Source": "Irrawaddy, 2021",
    "Source": "https://www.irrawaddy.com/news/burma/myanmar-junta-seizes-civilian-justice-ministers-home.html",
    "x copy": 96.0596365286158,
    "Township": "Mahaaungmyay",
    "TspCentroidLat": 21.961427716977,
    "TspCentroidLon": 96.0867929127193
  },
  {
    "ID": 17,
    "Detail": "NUG Interim President's house",
    "Shorten form of Source": "Irrawaddy, 2021",
    "Source": "https://www.irrawaddy.com/news/burma/myanmar-junta-seizes-civilian-justice-ministers-home.html",
    "Township": "Mahaaungmyay",
    "State/Region": "Mandalay",
    "TspCentroidLat": 21.961427716977,
    "TspCentroidLon": 96.0867929127193
  },
  {
    "ID": 18,
    "Detail": "NUG Prime Minister",
    "Shorten form of Source": "Irrawaddy, 2021",
    "Source": "https://www.irrawaddy.com/news/burma/myanmar-junta-seizes-civilian-justice-ministers-home.html",
    "Township": "Mahaaungmyay",
    "State/Region": "Mandalay",
    "TspCentroidLat": 21.961427716977,
    "TspCentroidLon": 96.0867929127193
  },
  {
    "ID": 19,
    "Detail": "NUG Minister of Education",
    "Shorten form of Source": "Irrawaddy, 2021",
    "Source": "https://www.irrawaddy.com/news/burma/myanmar-junta-seizes-civilian-justice-ministers-home.html",
    "Township": "Mahaaungmyay",
    "State/Region": "Mandalay",
    "TspCentroidLat": 21.961427716977,
    "TspCentroidLon": 96.0867929127193
  },
  {
    "ID": 20,
    "Detail": "NUG Minister of Health",
    "Shorten form of Source": "Irrawaddy, 2021",
    "Source": "https://www.irrawaddy.com/news/burma/myanmar-junta-seizes-civilian-justice-ministers-home.html",
    "Township": "Mahaaungmyay",
    "State/Region": "Mandalay",
    "TspCentroidLat": 21.961427716977,
    "TspCentroidLon": 96.0867929127193
  },
  {
    "ID": 21,
    "Y": 17.29706,
    "DDMMYY": "31-10-2021",
    "Year": 2021,
    "Month": 10,
    "Date": 31,
    "Township Raw": "Kyon Pyaw",
    "State/Region": "Ayeyawaddy",
    "Detail": "Mahn Johnny Chief Minister of Ayeyawaddy Region and NLD Central Committee Member house is seized and family living there expelled. ",
    "Shorten form of Source": "Irrawaddy, 2021",
    "Source": "https://www.irrawaddy.com/news/burma/myanmar-junta-seizes-homes-from-those-tied-to-nld-shadow-govt.html",
    "x copy": 95.19485,
    "Township": "Kyonpyaw",
    "TspCentroidLat": 17.3106203598442,
    "TspCentroidLon": 95.2770899493935
  },
  {
    "ID": 22,
    "Y": 22.6391130559165,
    "DDMMYY": "2-11-2021",
    "Year": 2021,
    "Month": 11,
    "Date": 2,
    "Township Raw": "Hakka",
    "State/Region": "Chin",
    "Detail": "House of Dr. Lian Hmung Sakhong, NUG Minister of Federal Affairs house seized.",
    "Shorten form of Source": "Irrawaddy, 2021",
    "Source": "https://www.irrawaddy.com/news/burma/myanmar-junta-seizes-homes-from-those-tied-to-nld-shadow-govt.html",
    "x copy": 93.6018138335831,
    "Township": "Hakha",
    "TspCentroidLat": 22.4539758754237,
    "TspCentroidLon": 93.7692106349326
  },
  {
    "ID": 23,
    "DDMMYY": "24-10-2021",
    "Year": 2021,
    "Month": 10,
    "Date": 24,
    "State/Region": "Tanintharyi",
    "Detail": "U Zaw Win member of Tanintharyi NLD executive committee house seized.",
    "Shorten form of Source": "Irrawaddy, 2021",
    "Source": "https://www.irrawaddy.com/news/burma/myanmar-junta-seizes-homes-from-those-tied-to-nld-shadow-govt.html",
    "Township": "Magway",
    "TspCentroidLat": 20.0851917944952,
    "TspCentroidLon": 95.1308437948474
  },
  {
    "ID": 24,
    "Y": 24.2190773261848,
    "DDMMYY": "15-1-2022",
    "Year": 2022,
    "Month": 1,
    "Date": 15,
    "Township Raw": "Tamu",
    "State/Region": "Sagaing",
    "Detail": "Naing Naing Win - Pyitthu Hluttaw member; Tang Sei - Amyotha Hluttaw MP; Maung Mang Latt former Amyotha Hluttaw member; PDF member; 2 protest organizers; and charity group leader had their homes sealed and nationalized by the SAC.",
    "Shorten form of Source": "BBC Burmese, 2021",
    "Source": "https://www.bbc.com/burmese/live/burma-59951679?ns_mchannel=social&ns_source=twitter&ns_campaign=bbc_live&ns_linkname=61e7fc210a22d424c588a530%26တမူးမြို့က%20လွှတ်တော်ကိုယ်စားလှယ်တွေ၊%20ဆန္ဒပြခေါင်းဆောင်တွေရဲ့%20နေအိမ်တွေကို%20ချိပ်ပိတ်ခံရ%262022-01-19T11%3A55%3A14.674Z&ns_fee=0&pinned_post_locator=urn:asset:692ff26b-96f5-4765-b15b-3bcadb760f63&pinned_post_asset_id=61e7fc210a22d424c588a530&pinned_post_type=share",
    "x copy": 94.3071124999895,
    "Township": "Tamu",
    "TspCentroidLat": 24.1796864147419,
    "TspCentroidLon": 94.3873909351333
  },
  {
    "ID": 25,
    "Y": 12.44815,
    "DDMMYY": "10-11-2021",
    "Year": 2021,
    "Month": 11,
    "Date": 10,
    "Township Raw": "Myeik",
    "State/Region": "Tanintharyi",
    "Detail": "Regime council nationalizes houses of former chair of Myeik Township Development Affairs Committee and member of National League for Democracy in Myeik, Tanintharyi Region, for having ties to PDF",
    "Source": "Dawei Watch, Frontier Myanmer Media monitor",
    "x copy": 98.61102,
    "Township": "Myeik",
    "TspCentroidLat": 12.4998215373652,
    "TspCentroidLon": 98.7759977430884
  },
  {
    "ID": 26,
    "Y": 19.9668732985089,
    "DDMMYY": "10-11-2021",
    "Year": 2021,
    "Month": 11,
    "Date": 10,
    "Township Raw": "Minhla",
    "State/Region": "Magwe",
    "Detail": "Regime council nationalizes houses and properties of three National League for Democracy MPs in Magway Region [in Magway, Minhla and Taungdwingyi towns; for having ties to PDF]",
    "Source": "DVB TV, Frontier Myanmer Media Monitor",
    "x copy": 95.0382827475085,
    "Township": "Minhla",
    "TspCentroidLat": 19.7462201841377,
    "TspCentroidLon": 94.7605164390542
  },
  {
    "ID": 27,
    "DDMMYY": "10-11-2021",
    "Year": 2021,
    "Month": 11,
    "Date": 10,
    "Township Raw": "Magwe",
    "State/Region": "Magwe",
    "Detail": "Regime council nationalizes houses and properties of three National League for Democracy MPs in Magway Region [in Magway, Minhla and Taungdwingyi towns; for having ties to PDF]",
    "Source": "DVB TV, Frontier Myanmer Media Monitor",
    "Township": "Magway",
    "TspCentroidLat": 20.0851917944952,
    "TspCentroidLon": 95.1308437948474
  },
  {
    "ID": 28,
    "DDMMYY": "10-11-2021",
    "Year": 2021,
    "Month": 11,
    "Date": 10,
    "Township Raw": "Taungdwingyi",
    "State/Region": "Magwe",
    "Detail": "Regime council nationalizes houses and properties of three National League for Democracy MPs in Magway Region [in Magway, Minhla and Taungdwingyi towns; for having ties to PDF]",
    "Source": "DVB TV, Frontier Myanmer Media Monitor",
    "Township": "Taungdwingyi",
    "TspCentroidLat": 19.8812994937033,
    "TspCentroidLon": 95.5855523834813
  },
  {
    "ID": 29,
    "DDMMYY": "25-10-2021",
    "Year": 2021,
    "Month": 10,
    "Date": 25,
    "Township Raw": "Ye-U",
    "State/Region": "Sagaing",
    "Detail": "Regime forces confiscated the house of Sagaing Region Hluttaw MP U Myint Htwe (Ye-U-2) on October 25.",
    "Source": "DVB, Frontier Myanmar Media Monitor",
    "Township": "Ye-U",
    "TspCentroidLat": 22.8591135320131,
    "TspCentroidLon": 95.1171665300193
  },
  {
    "ID": 30,
    "DDMMYY": "16-12-2021",
    "Year": 2021,
    "Month": 12,
    "Date": 16,
    "Township Raw": "Yebyu",
    "State/Region": "Tanintharyi",
    "Detail": "The regime council confiscated the houses of two executive members of the Yebyu Township National League for Democracy in Tanintharyi Region on December 14, residents said. The houses of U Thein Zaw Oo and U Aung Zaw Htwe, who have gone into hiding with their families, were seized by junta forces because they were accused of having ties to the PDF, residents said.",
    "Source": "Dawei Watch, Frontier Myanmer Media monitor",
    "Township": "Yebyu",
    "TspCentroidLat": 14.6297221435891,
    "TspCentroidLon": 98.1061757575827
  },
  {
    "ID": 31,
    "Y": 13.636059024019,
    "DDMMYY": "16-12-2021",
    "Year": 2021,
    "Month": 12,
    "Date": 16,
    "Place (as close as possible)": "Kywe Min Gone village",
    "Township Raw": "Thayetchaung",
    "State/Region": "Tanintharyi",
    "Detail": "The regime council also seized the home of a hardcore NLD supporter in Kywe Min Gone village in Thayetchaung Township on December 14.",
    "Source": "Dawei Watch, Frontier Myanmer Media monitor",
    "x copy": 98.3422239748784,
    "Township": "Thayetchaung",
    "TspCentroidLat": 13.6913013442252,
    "TspCentroidLon": 98.4430971094508
  },
  {
    "ID": 32,
    "DDMMYY": "4-12-2021",
    "Year": 2021,
    "Month": 12,
    "Date": 4,
    "Township Raw": "Kantbalu",
    "State/Region": "Sagaing",
    "Detail": "Junta forces seize house of U Nay Zin Latt, Sagaing Region MP in Kantbalu Township [on December 4]",
    "Source": "DVB TV, Frontier Myanmer Media Monitor",
    "Township": "Kanbalu",
    "TspCentroidLat": 23.2190809722834,
    "TspCentroidLon": 95.7034550545318
  },
  {
    "ID": 33,
    "DDMMYY": "29-10-2021",
    "Year": 2021,
    "Month": 10,
    "Date": 29,
    "Township Raw": "Wetlet",
    "State/Region": "Sagaing",
    "Detail": "Regime council seizes houses of two MPs, as well as a private school and five convenience stores in Wetlet town in Sagaing Region [for having ties to PDF; Pyithu Hluttaw MP U Myint Thein and Sagaing Region Hluttaw MP U Maung Maung Win; report did not say who owned private school and convenience stores]",
    "Source": "DVB TV, Frontier Myanmer Media Monitor",
    "Township": "Wetlet",
    "TspCentroidLat": 22.351626876797,
    "TspCentroidLon": 95.7810614222066
  },
  {
    "ID": 34,
    "DDMMYY": "3-11-2021",
    "Year": 2021,
    "Month": 11,
    "Date": 3,
    "Township Raw": "Taze",
    "State/Region": "Sagaing",
    "Detail": "3 NLD lawmakers' properties seized for alleged links to PDF.",
    "Shorten form of Source": "RFA, 2021",
    "Source": "https://www.rfa.org/burmese/news/military-occupied-nld-member-house-in-taze-11022021095004.html",
    "Township": "Taze",
    "TspCentroidLat": 23.0867535588662,
    "TspCentroidLon": 95.194964500748
  },
  {
    "ID": 35,
    "DDMMYY": "9-11-2021",
    "Year": 2021,
    "Month": 11,
    "Date": 9,
    "Place (as close as possible)": "May Sa Li",
    "Township Raw": "Pwin Phyu ",
    "State/Region": "Magwe",
    "Detail": "Former NLD lawmaker U Htun Htun's home seized.",
    "Shorten form of Source": "BBC Burmese, 2021",
    "Source": "https://www.bbc.com/burmese/live/burma-59220297?ns_mchannel=social&ns_source=twitter&ns_campaign=bbc_live&ns_linkname=618a7503f425de0f29683339%26မကွေးတိုင်းက%20NLD%20ကိုယ်စားလှယ်တွေရဲ့%20အိမ်အချို့%20ချိပ်ပိတ်ခံရ%262021-11-09T13%3A17%3A57.500Z&ns_fee=0&pinned_post_locator=urn:asset:112be2d2-1f94-4727-b12f-29ae0d58d5b7&pinned_post_asset_id=618a7503f425de0f29683339&pinned_post_type=share",
    "Township": "Pwintbyu",
    "TspCentroidLat": 20.3476631488656,
    "TspCentroidLon": 94.6042115777029
  },
  {
    "ID": 36,
    "Y": 19.9668732985089,
    "DDMMYY": "9-11-2021",
    "Year": 2021,
    "Month": 11,
    "Date": 9,
    "Township Raw": "Minhla",
    "State/Region": "Magwe",
    "Detail": "Magwe Hluttaw member Dr. Ye Htun Zaw's home seized.",
    "Shorten form of Source": "BBC Burmese, 2021",
    "Source": "https://www.bbc.com/burmese/live/burma-59220297?ns_mchannel=social&ns_source=twitter&ns_campaign=bbc_live&ns_linkname=618a7503f425de0f29683339%26မကွေးတိုင်းက%20NLD%20ကိုယ်စားလှယ်တွေရဲ့%20အိမ်အချို့%20ချိပ်ပိတ်ခံရ%262021-11-09T13%3A17%3A57.500Z&ns_fee=0&pinned_post_locator=urn:asset:112be2d2-1f94-4727-b12f-29ae0d58d5b7&pinned_post_asset_id=618a7503f425de0f29683339&pinned_post_type=share",
    "x copy": 95.0382827475085,
    "Township": "Minhla",
    "TspCentroidLat": 19.7462201841377,
    "TspCentroidLon": 94.7605164390542
  },
  {
    "ID": 37,
    "DDMMYY": "9-11-2021",
    "Year": 2021,
    "Month": 11,
    "Date": 9,
    "Township Raw": "Magwe",
    "State/Region": "Magwe",
    "Detail": "Magwe Hluttaw member Daw Khin Cho Latt's home seized",
    "Shorten form of Source": "BBC Burmese, 2021",
    "Source": "https://www.bbc.com/burmese/live/burma-59220297?ns_mchannel=social&ns_source=twitter&ns_campaign=bbc_live&ns_linkname=618a7503f425de0f29683339%26မကွေးတိုင်းက%20NLD%20ကိုယ်စားလှယ်တွေရဲ့%20အိမ်အချို့%20ချိပ်ပိတ်ခံရ%262021-11-09T13%3A17%3A57.500Z&ns_fee=0&pinned_post_locator=urn:asset:112be2d2-1f94-4727-b12f-29ae0d58d5b7&pinned_post_asset_id=618a7503f425de0f29683339&pinned_post_type=share",
    "Township": "Magway",
    "TspCentroidLat": 20.0851917944952,
    "TspCentroidLon": 95.1308437948474
  },
  {
    "ID": 38,
    "DDMMYY": "20-1-2022",
    "Year": 2022,
    "Month": 1,
    "Date": 20,
    "Place (as close as possible)": "San Myo ward, Bojoke Road",
    "Township Raw": "Kalay",
    "State/Region": "Sagaing",
    "Detail": "Hluttaw MP Daw Shan Mi's home seized.",
    "Shorten form of Source": "BBC Burmese, 2021",
    "Source": "https://www.bbc.com/burmese/live/burma-59951679?ns_mchannel=social&ns_source=twitter&ns_campaign=bbc_live&ns_linkname=61e977b20a22d424c588a71b%26ကလေးမြို့က%20လွှတ်တော်ကိုယ်စားလှယ်တွေနေအိမ်အချို့%20ချိပ်ပိတ်ခံရ%262022-01-20T15%3A00%3A35.890Z&ns_fee=0&pinned_post_locator=urn:asset:22c9bcdf-e26b-41e2-8d23-f4f1264a63b8&pinned_post_asset_id=61e977b20a22d424c588a71b&pinned_post_type=share",
    "Township": "Kale",
    "TspCentroidLat": 23.1567638746506,
    "TspCentroidLon": 94.1222210740819
  },
  {
    "ID": 39,
    "DDMMYY": "20-1-2022",
    "Year": 2022,
    "Month": 1,
    "Date": 20,
    "Place (as close as possible)": "Gangaw St",
    "Township Raw": "Kalay",
    "State/Region": "Sagaing",
    "Detail": "Hluttaw MP Daw Than Wai Kyaw",
    "Shorten form of Source": "BBC Burmese, 2021",
    "Source": "https://www.bbc.com/burmese/live/burma-59951679?ns_mchannel=social&ns_source=twitter&ns_campaign=bbc_live&ns_linkname=61e977b20a22d424c588a71b%26ကလေးမြို့က%20လွှတ်တော်ကိုယ်စားလှယ်တွေနေအိမ်အချို့%20ချိပ်ပိတ်ခံရ%262022-01-20T15%3A00%3A35.890Z&ns_fee=0&pinned_post_locator=urn:asset:22c9bcdf-e26b-41e2-8d23-f4f1264a63b8&pinned_post_asset_id=61e977b20a22d424c588a71b&pinned_post_type=share",
    "Township": "Kale",
    "TspCentroidLat": 23.1567638746506,
    "TspCentroidLon": 94.1222210740819
  },
  {
    "ID": 40,
    "DDMMYY": "29-11-2021",
    "Year": 2021,
    "Month": 11,
    "Date": 29,
    "Township Raw": "Chan Mya Tharzi",
    "State/Region": "Mandalay",
    "Detail": "Parents of PDF fighter's home confiscated in Mandalay.",
    "Shorten form of Source": "Myanmar Now, 2021",
    "Source": "https://myanmar-now.org/mm/news/9458",
    "Township": "Chanmyathazi",
    "TspCentroidLat": 21.9383961349172,
    "TspCentroidLon": 96.0949218904027
  },
  {
    "ID": 41,
    "DDMMYY": "5-11-2021",
    "Year": 2021,
    "Month": 11,
    "Date": 5,
    "Township Raw": "Saetottara",
    "State/Region": "Magwe",
    "Detail": "Confiscation of homes of NLD members.",
    "Shorten form of Source": "RFA, 2021",
    "Source": "https://www.rfa.org/burmese/program_2/military-occupied-civilians-house-11052021053451.html",
    "Township": "Sidoktaya",
    "TspCentroidLat": 20.508366422983,
    "TspCentroidLon": 94.1806578654296
  },
  {
    "ID": 42,
    "DDMMYY": "20-7-1965",
    "Year": 1965,
    "Month": 7,
    "Date": 20,
    "Place (as close as possible)": "55-61 Strand Rd (across from the corner of Bo Aung Kyaw and Strand on the river side of the road)",
    "Township Raw": "Bohtataung",
    "State/Region": "Yangon",
    "Detail": "Use of the Land Acquisition Act to nationalize the Mayo Marine Club, Rangoon's Seamen's Club for sailors coming into port in Rangoon. ",
    "Source": "UK National Archives. 1965. DB 1461/6.",
    "What is there now?": "Same building, now is the site of Myawaddy Bank Limited",
    "Township": "Botahtaung",
    "TspCentroidLat": 16.7707476091986,
    "TspCentroidLon": 96.1778180078059
  },
  {
    "ID": 43,
    "DDMMYY": "19-3-1964",
    "Year": 1964,
    "Month": 3,
    "Date": 19,
    "Place (as close as possible)": "67-69 Seikkantha (formerly Lewis St)",
    "Township Raw": "Kyauktada",
    "State/Region": "Yangon",
    "Detail": "British firm Fairweather Richards nationalized and stocks siezed.  ",
    "Source": "UK National Archives. 1964. DB 1461/1. ",
    "Township": "Kyauktada",
    "TspCentroidLat": 16.7744554277902,
    "TspCentroidLon": 96.1613696309583
  },
  {
    "ID": 44,
    "DDMMYY": "31-3-1964",
    "Year": 1964,
    "Month": 3,
    "Date": 31,
    "Place (as close as possible)": "478 Merchant St.",
    "Township Raw": "Kyauktada",
    "State/Region": "Yangon",
    "Detail": "British firm Charles R. Cowie and Co. nationalised by Ne Win's regime. ",
    "Source": "UK National Archives. 1964. DB 1461/2.\n",
    "Township": "Kyauktada",
    "TspCentroidLat": 16.7744554277902,
    "TspCentroidLon": 96.1613696309583
  },
  {
    "ID": 45,
    "DDMMYY": "14-3-1969",
    "Year": 1969,
    "Month": 3,
    "Date": 14,
    "Place (as close as possible)": "4 Thukha Waddy St",
    "Township Raw": "Yankin",
    "State/Region": "Yangon",
    "Detail": "Taingyintha Press, located at 4 Soorinam Layout, Lake Ave. Kaba Aye was nationalized along with 12 other presses on 14 March 1969, via Notification No. 38/1969 issued by the Ministry of Information under the 1965 Law Empowering the Government to Socialize the Economy.",
    "Source": "UK National Archives. 1969. 'Burma Nationalisation' FCO 15/831",
    "Township": "Yankin",
    "TspCentroidLat": 16.8356651715576,
    "TspCentroidLon": 96.1647758399035
  },
  {
    "ID": 46,
    "DDMMYY": "14-3-1969",
    "Year": 1969,
    "Month": 3,
    "Date": 14,
    "Place (as close as possible)": "53-55 Wadan St",
    "Township Raw": "Lanmadaw",
    "State/Region": "Yangon",
    "Detail": "Sanpya Colour Press was nationalized along with 12 other presses on 14 March 1969, via Notification No. 38/1969 issued by the Ministry of Information under the 1965 Law Empowering the Government to Socialize the Economy.",
    "Source": "UK National Archives. 1969. 'Burma Nationalisation' FCO 15/831",
    "Township": "Lanmadaw",
    "TspCentroidLat": 16.7775059068245,
    "TspCentroidLon": 96.1438467795595
  },
  {
    "ID": 47,
    "DDMMYY": "14-3-1969",
    "Year": 1969,
    "Month": 3,
    "Date": 14,
    "Place (as close as possible)": "68 Shwe Taung Tan",
    "Township Raw": "Lanmadaw",
    "State/Region": "Yangon",
    "Detail": "Akyodawsaun Press was nationalized along with 12 other presses on 14 March 1969, via Notification No. 38/1969 issued by the Ministry of Information under the 1965 Law Empowering the Government to Socialize the Economy.",
    "Source": "UK National Archives. 1969. 'Burma Nationalisation' FCO 15/831",
    "Township": "Lanmadaw",
    "TspCentroidLat": 16.7775059068245,
    "TspCentroidLon": 96.1438467795595
  },
  {
    "ID": 48,
    "DDMMYY": "14-3-1969",
    "Year": 1969,
    "Month": 3,
    "Date": 14,
    "Place (as close as possible)": "79-81 Shwe Taung Tan",
    "Township Raw": "Lanmadaw",
    "State/Region": "Yangon",
    "Detail": "Bee Hwe Press was nationalized along with 12 other presses on 14 March 1969, via Notification No. 38/1969 issued by the Ministry of Information under the 1965 Law Empowering the Government to Socialize the Economy.",
    "Source": "UK National Archives. 1969. 'Burma Nationalisation' FCO 15/831",
    "Township": "Lanmadaw",
    "TspCentroidLat": 16.7775059068245,
    "TspCentroidLon": 96.1438467795595
  },
  {
    "ID": 49,
    "DDMMYY": "14-3-1969",
    "Year": 1969,
    "Month": 3,
    "Date": 14,
    "Place (as close as possible)": "105 Latha Street",
    "Township Raw": "Latha",
    "State/Region": "Yangon",
    "Detail": "Hone Hain Press was nationalized along with 12 other presses on 14 March 1969, via Notification No. 38/1969 issued by the Ministry of Information under the 1965 Law Empowering the Government to Socialize the Economy.",
    "Source": "UK National Archives. 1969. 'Burma Nationalisation' FCO 15/831",
    "Township": "Latha",
    "TspCentroidLat": 16.7767639775686,
    "TspCentroidLon": 96.1505377213414
  },
  {
    "ID": 50,
    "DDMMYY": "14-3-1969",
    "Year": 1969,
    "Month": 3,
    "Date": 14,
    "Place (as close as possible)": "53 Bo Ywe Street",
    "Township Raw": "Latha",
    "State/Region": "Yangon",
    "Detail": "Nan Yaung Press was nationalized along with 12 other presses on 14 March 1969, via Notification No. 38/1969 issued by the Ministry of Information under the 1965 Law Empowering the Government to Socialize the Economy.",
    "Source": "UK National Archives. 1969. 'Burma Nationalisation' FCO 15/831",
    "Township": "Latha",
    "TspCentroidLat": 16.7767639775686,
    "TspCentroidLon": 96.1505377213414
  },
  {
    "ID": 51,
    "DDMMYY": "14-3-1969",
    "Year": 1969,
    "Month": 3,
    "Date": 14,
    "Place (as close as possible)": "122 22nd Street",
    "Township Raw": "Latha",
    "State/Region": "Yangon",
    "Detail": "Khit Bama Press was nationalized along with 12 other presses on 14 March 1969, via Notification No. 38/1969 issued by the Ministry of Information under the 1965 Law Empowering the Government to Socialize the Economy.",
    "Source": "UK National Archives. 1969. 'Burma Nationalisation' FCO 15/831",
    "Township": "Latha",
    "TspCentroidLat": 16.7767639775686,
    "TspCentroidLon": 96.1505377213414
  },
  {
    "ID": 52,
    "DDMMYY": "14-3-1969",
    "Year": 1969,
    "Month": 3,
    "Date": 14,
    "Place (as close as possible)": "218 32nd Street",
    "Township Raw": "Pabedan",
    "State/Region": "Yangon",
    "Detail": "Kaung Hwa Press was nationalized along with 12 other presses on 14 March 1969, via Notification No. 38/1969 issued by the Ministry of Information under the 1965 Law Empowering the Government to Socialize the Economy.",
    "Source": "UK National Archives. 1969. 'Burma Nationalisation' FCO 15/831",
    "Township": "Pabedan",
    "TspCentroidLat": 16.776427546149,
    "TspCentroidLon": 96.1558367393629
  },
  {
    "ID": 53,
    "DDMMYY": "14-3-1969",
    "Year": 1969,
    "Month": 3,
    "Date": 14,
    "Place (as close as possible)": "201 32nd Stret",
    "Township Raw": "Pabedan",
    "State/Region": "Yangon",
    "Detail": "Pyidawtha Press was nationalized along with 12 other presses on 14 March 1969, via Notification No. 38/1969 issued by the Ministry of Information under the 1965 Law Empowering the Government to Socialize the Economy.",
    "Source": "UK National Archives. 1969. 'Burma Nationalisation' FCO 15/831",
    "Township": "Pabedan",
    "TspCentroidLat": 16.776427546149,
    "TspCentroidLon": 96.1558367393629
  },
  {
    "ID": 54,
    "DDMMYY": "14-3-1969",
    "Year": 1969,
    "Month": 3,
    "Date": 14,
    "Place (as close as possible)": "276 Maha Bandula Garden Street",
    "Township Raw": "Kyauktada",
    "State/Region": "Yangon",
    "Detail": "Kyaw Soe Colour Press was nationalized along with 12 other presses on 14 March 1969, via Notification No. 38/1969 issued by the Ministry of Information under the 1965 Law Empowering the Government to Socialize the Economy.",
    "Source": "UK National Archives. 1969. 'Burma Nationalisation' FCO 15/831",
    "Township": "Kyauktada",
    "TspCentroidLat": 16.7744554277902,
    "TspCentroidLon": 96.1613696309583
  },
  {
    "ID": 55,
    "DDMMYY": "14-3-1969",
    "Year": 1969,
    "Month": 3,
    "Date": 14,
    "Place (as close as possible)": "53 Bogalayzay",
    "Township Raw": "Bohtataung",
    "State/Region": "Yangon",
    "Detail": "Rangoon Colour Press was nationalized along with 12 other presses on 14 March 1969, via Notification No. 38/1969 issued by the Ministry of Information under the 1965 Law Empowering the Government to Socialize the Economy.",
    "Source": "UK National Archives. 1969. 'Burma Nationalisation' FCO 15/831",
    "Township": "Botahtaung",
    "TspCentroidLat": 16.7707476091986,
    "TspCentroidLon": 96.1778180078059
  },
  {
    "ID": 56,
    "DDMMYY": "14-3-1969",
    "Year": 1969,
    "Month": 3,
    "Date": 14,
    "Place (as close as possible)": "200 50th Street",
    "Township Raw": "Bohtataung",
    "State/Region": "Yangon",
    "Detail": "Sabai Press was nationalized along with 12 other presses on 14 March 1969, via Notification No. 38/1969 issued by the Ministry of Information under the 1965 Law Empowering the Government to Socialize the Economy.",
    "Source": "UK National Archives. 1969. 'Burma Nationalisation' FCO 15/831",
    "Township": "Botahtaung",
    "TspCentroidLat": 16.7707476091986,
    "TspCentroidLon": 96.1778180078059
  },
  {
    "ID": 57,
    "DDMMYY": "14-3-1969",
    "Year": 1969,
    "Month": 3,
    "Date": 14,
    "Place (as close as possible)": "182 51st Street",
    "Township Raw": "Bohtataung",
    "State/Region": "Yangon",
    "Detail": "Cherry Press was nationalized along with 12 other presses on 14 March 1969, via Notification No. 38/1969 issued by the Ministry of Information under the 1965 Law Empowering the Government to Socialize the Economy.",
    "Source": "UK National Archives. 1969. 'Burma Nationalisation' FCO 15/831",
    "Township": "Botahtaung",
    "TspCentroidLat": 16.7707476091986,
    "TspCentroidLon": 96.1778180078059
  },
  {
    "ID": 58,
    "DDMMYY": "14-3-1969",
    "Year": 1969,
    "Month": 3,
    "Date": 14,
    "Place (as close as possible)": "65 Bo Ywe Street",
    "Township Raw": "Latha",
    "State/Region": "Yangon",
    "Detail": "Khit Bama Press was nationalized along with 12 other presses on 14 March 1969, via Notification No. 38/1969 issued by the Ministry of Information under the 1965 Law Empowering the Government to Socialize the Economy.",
    "Source": "UK National Archives. 1969. 'Burma Nationalisation' FCO 15/831",
    "Township": "Latha",
    "TspCentroidLat": 16.7767639775686,
    "TspCentroidLon": 96.1505377213414
  },
  {
    "ID": 59,
    "DDMMYY": "14-3-1969",
    "Year": 1969,
    "Month": 3,
    "Date": 14,
    "Place (as close as possible)": "11 Padonmar Street",
    "Township Raw": "Dagon",
    "State/Region": "Yangon",
    "Detail": "Hone Hain Press was nationalized along with 12 other presses on 14 March 1969, via Notification No. 38/1969 issued by the Ministry of Information under the 1965 Law Empowering the Government to Socialize the Economy.",
    "Source": "UK National Archives. 1969. 'Burma Nationalisation' FCO 15/831",
    "Township": "Dagon",
    "TspCentroidLat": 16.7919321788901,
    "TspCentroidLon": 96.1453442008238
  },
  {
    "ID": 60,
    "DDMMYY": "17-12-1968",
    "Year": 1968,
    "Month": 12,
    "Date": 17,
    "Place (as close as possible)": "5 Than Lyet Soon Road",
    "Township Raw": "Bohtataung",
    "State/Region": "Yangon",
    "Detail": "Burma Oxygen Ltd was the last British firm operating in Burma without being nationalised in some manner. It provided oxygen piping to local hospitals. ",
    "Source": "Working People's Daily. 'State takes over 168 industries' 17 December 1968.",
    "Township": "Botahtaung",
    "TspCentroidLat": 16.7707476091986,
    "TspCentroidLon": 96.1778180078059
  },
  {
    "ID": 61,
    "DDMMYY": "17-12-1968",
    "Year": 1968,
    "Month": 12,
    "Date": 17,
    "Place (as close as possible)": "49 26th Street",
    "Township Raw": "Pabedan\n",
    "State/Region": "Yangon",
    "Detail": "E.C. Madha Bros. Ltd. a soap and umbrella manufacturer was nationalized.\n",
    "Source": "Working People's Daily. 'State takes over 168 industries' 17 December 1968.",
    "Images": [
      {
        "id": "attPu3ZK7D0YtovZ3",
        "width": 3120,
        "height": 4160,
        "url": "https://dl.airtable.com/.attachments/1c1dea7940e7a3d911ec8418b2619777/42aa30c6/IMG_20160206_161321.jpg?ts=1654838747&userId=usrplMOfuVm33ljLk&cs=17cf9063f3732a05",
        "filename": "IMG_20160206_161321.jpg",
        "size": 3689926,
        "type": "image/jpeg",
        "thumbnails": {
          "small": {
            "url": "https://dl.airtable.com/.attachmentThumbnails/b2862ecda26a00774697b2fddd6bb30b/557e2506?ts=1654838747&userId=usrplMOfuVm33ljLk&cs=ede3ca4f8fc034c0",
            "width": 27,
            "height": 36
          },
          "large": {
            "url": "https://dl.airtable.com/.attachmentThumbnails/7131b4285c52608e8157a666ec4fac06/eeeff977?ts=1654838747&userId=usrplMOfuVm33ljLk&cs=14e16acde0ff6562",
            "width": 512,
            "height": 683
          },
          "full": {
            "url": "https://dl.airtable.com/.attachmentThumbnails/13e5c508374c9104db427024e31ce318/f5932248?ts=1654838747&userId=usrplMOfuVm33ljLk&cs=da8e4e59724005e2",
            "width": 3000,
            "height": 3000
          }
        }
      }
    ],
    "What is there now?": "Original building remains",
    "Township": "Pabedan",
    "TspCentroidLat": 16.776427546149,
    "TspCentroidLon": 96.1558367393629,
    "ImageIds": ["attPu3ZK7D0YtovZ3/jpeg"]
  },
  {
    "ID": 62,
    "DDMMYY": "17-12-1968",
    "Year": 1968,
    "Month": 12,
    "Date": 17,
    "Place (as close as possible)": "108 Insein Road",
    "Township Raw": "Kamaryut",
    "State/Region": "Yangon",
    "Detail": "Burma Biscuit Co Ltd was nationalized, including the tin works. ",
    "Source": "Working People's Daily. 'State takes over 168 industries' 17 December 1968.",
    "Township": "Kamaryut",
    "TspCentroidLat": 16.8235914245466,
    "TspCentroidLon": 96.1328500417372
  },
  {
    "ID": 63,
    "DDMMYY": "17-12-1968",
    "Year": 1968,
    "Month": 12,
    "Date": 17,
    "Place (as close as possible)": "104 Strand Road",
    "Township Raw": "Bohtataung",
    "State/Region": "Yangon",
    "Detail": "Bombay Burma Trading Corporation main office nationalized. ",
    "Source": "Working People's Daily. 'State takes over 168 industries' 17 December 1968; For more on BBTC premises see: https://www.yangongui.de/myanmar-national-airlines/ For photo see: https://www.yangontimemachine.com/en/index?id=15&art=strand_hotel",
    "What is there now?": "Myanmar National Airlines office.",
    "Township": "Botahtaung",
    "TspCentroidLat": 16.7707476091986,
    "TspCentroidLon": 96.1778180078059
  },
  {
    "ID": 64,
    "DDMMYY": "17-12-1968",
    "Year": 1968,
    "Month": 12,
    "Date": 17,
    "Place (as close as possible)": "Dala Dockyard",
    "Township Raw": "Dala",
    "State/Region": "Yangon",
    "Detail": "Bombay Burma Trading Corporation Dala dockyard nationalized. ",
    "Source": "Working People's Daily. 'State takes over 168 industries' 17 December 1968.",
    "What is there now?": "Dala Dockyard",
    "Township": "Dala",
    "TspCentroidLat": 16.6769453917075,
    "TspCentroidLon": 96.152041230287
  },
  {
    "ID": 65,
    "DDMMYY": "17-12-1968",
    "Year": 1968,
    "Month": 12,
    "Date": 17,
    "Place (as close as possible)": "Ahlone Shipyard, Kyimyindaing Strand Road and Thakin Mya Garden Street",
    "Township Raw": "Ahlone",
    "State/Region": "Yangon",
    "Detail": "Bombay Burma Trading Corporation asbestos works in Ahlone nationalized. ",
    "Source": "Working People's Daily. 'State takes over 168 industries' 17 December 1968.",
    "What is there now?": "Ahlone shipyard",
    "Township": "Ahlone",
    "TspCentroidLat": 16.7845912520186,
    "TspCentroidLon": 96.1280791926168
  },
  {
    "ID": 66,
    "DDMMYY": "17-12-1968",
    "Year": 1968,
    "Month": 12,
    "Date": 17,
    "Place (as close as possible)": "237 Banyar Dala Road",
    "Township Raw": "Tarmwe",
    "State/Region": "Yangon",
    "Detail": "Bo Ohn Thee Engineering was nationalized. Later became Engineering Factory No. 3, Production Branch No. 1. ",
    "Source": "Working People's Daily. 'State takes over 168 industries' 17 December 1968.",
    "Township": "Tamwe",
    "TspCentroidLat": 16.8103040618861,
    "TspCentroidLon": 96.1758477982254
  },
  {
    "ID": 67,
    "DDMMYY": "17-12-1968",
    "Year": 1968,
    "Month": 12,
    "Date": 17,
    "Place (as close as possible)": "346 Pyay Road",
    "Township Raw": "Sanchaung",
    "State/Region": "Yangon",
    "Detail": "Clark and Greig, Ltd was an engineering and contracting firm that constructed buildings like the Port Authority, Yangon City Hall, and the Central Telegraph Office.",
    "Source": "Working People's Daily. 'State takes over 168 industries' 17 December 1968.",
    "Township": "Sanchaung",
    "TspCentroidLat": 16.8062463728202,
    "TspCentroidLon": 96.1324271734802
  },
  {
    "ID": 68,
    "DDMMYY": "23-2-1963",
    "Year": 1963,
    "Month": 2,
    "Date": 23,
    "Place (as close as possible)": "Merchant Street between Maha Bandula Park St and 35th St",
    "Township Raw": "Kyauktada",
    "State/Region": "Yangon",
    "Detail": "Hong Kong and Shanghai Banking Corporation (HSBC) was nationalized in 1963, becoming People's Bank No. 9. ",
    "Source": "For photos see: https://www.yangontimemachine.com/en/index?id=32&art=hsbc_bank\nand https://www.irrawaddy.com/specials/on-this-day/gen-ne-win-seized-domestic-international-banks-myanmar.html",
    "What is there now?": "Myanmar Foreign Trade Bank (MFTB)",
    "Township": "Kyauktada",
    "TspCentroidLat": 16.7744554277902,
    "TspCentroidLon": 96.1613696309583
  },
  {
    "ID": 69,
    "DDMMYY": "23-2-1963",
    "Year": 1963,
    "Month": 2,
    "Date": 23,
    "Place (as close as possible)": "27-41 Pansodan  (corner of Pansodan and north side of Bank)",
    "Township Raw": "Kyauktada",
    "State/Region": "Yangon",
    "Detail": "The Chartered Bank of India, Australia and China  was nationalized and became People's Bank No. 2. The ground floor had been rented and used as the US Embassy Library (US Information Service), the precursor to the American Center Library.",
    "Source": "For photos of the nationalization, see: https://www.irrawaddy.com/specials/on-this-day/gen-ne-win-seized-domestic-international-banks-myanmar.html; Yangon Architectural Guide: https://www.yangongui.de/myanma-economic-bank-branch-2/",
    "Images": [
      {
        "id": "attqgLIrj6caB1SL5",
        "width": 4160,
        "height": 3120,
        "url": "https://dl.airtable.com/.attachments/1772dc2ac6f11078587e2882c8d32bef/a086bf8b/IMG_20160211_105732.jpg?ts=1654838747&userId=usrplMOfuVm33ljLk&cs=e4b6ca48081766bb",
        "filename": "IMG_20160211_105732.jpg",
        "size": 2715408,
        "type": "image/jpeg",
        "thumbnails": {
          "small": {
            "url": "https://dl.airtable.com/.attachmentThumbnails/73052be18edfa7a6dac8fe3e2fdbb32f/ca5f0e5b?ts=1654838747&userId=usrplMOfuVm33ljLk&cs=cd895a66057e7f44",
            "width": 48,
            "height": 36
          },
          "large": {
            "url": "https://dl.airtable.com/.attachmentThumbnails/9aa3146da82a19dbe3c41853175fb63a/44982681?ts=1654838747&userId=usrplMOfuVm33ljLk&cs=c3f7361029195be9",
            "width": 683,
            "height": 512
          },
          "full": {
            "url": "https://dl.airtable.com/.attachmentThumbnails/e8d60528481162291e58851014cb8588/b3654de9?ts=1654838747&userId=usrplMOfuVm33ljLk&cs=9e1fafcfc6ea5ba9",
            "width": 3000,
            "height": 3000
          }
        }
      }
    ],
    "What is there now?": "Now Myanmar Economic Bank (MEB) No. 2",
    "Township": "Kyauktada",
    "TspCentroidLat": 16.7744554277902,
    "TspCentroidLon": 96.1613696309583,
    "ImageIds": ["attqgLIrj6caB1SL5/jpeg"]
  },
  {
    "ID": 70,
    "DDMMYY": "26-3-1965",
    "Year": 1965,
    "Month": 3,
    "Date": 26,
    "Place (as close as possible)": "Anawratha and Theinbyu ",
    "Township Raw": "Kyauktada",
    "State/Region": "Yangon",
    "Detail": "St. Paul's Catholic High School was nationalized in 1965. ",
    "Source": "UK National Archives. 1965. DB 1461/2. For photos see: https://www.yangongui.de/basic-education-high-school-no-6-botataung/",
    "What is there now?": "Basic Education High School No. 6 Bohtataung",
    "Township": "Kyauktada",
    "TspCentroidLat": 16.7744554277902,
    "TspCentroidLon": 96.1613696309583
  },
  {
    "ID": 71,
    "DDMMYY": "23-2-1963",
    "Year": 1963,
    "Month": 2,
    "Date": 23,
    "Place (as close as possible)": "550-556 Merchant Road",
    "Township Raw": "Kyauktada",
    "State/Region": "Yangon",
    "Detail": "Mercantile Bank of India was nationalized, becoming People's Bank No. 5.",
    "Source": "UK National Archives. 1964. DB 1461/3. For more on the building and the former owners, see: https://www.yangongui.de/innwa-bank/",
    "What is there now?": "Now Innwa Bank Limited",
    "Township": "Kyauktada",
    "TspCentroidLat": 16.7744554277902,
    "TspCentroidLon": 96.1613696309583
  },
  {
    "ID": 72,
    "DDMMYY": "23-2-1963",
    "Year": 1963,
    "Month": 2,
    "Date": 23,
    "Place (as close as possible)": "15-19 Sule Pagoda Road",
    "Township Raw": "Kyauktada",
    "State/Region": "Yangon",
    "Detail": "Bank of Bengal later the Imperial Bank of India was nationalised, becoming People's Bank No. 8. ",
    "Source": "https://www.yangongui.de/myanmar-economic-bank-branch-3/",
    "What is there now?": "Myanmar Economic Bank No. 3",
    "Township": "Kyauktada",
    "TspCentroidLat": 16.7744554277902,
    "TspCentroidLon": 96.1613696309583
  },
  {
    "ID": 73,
    "DDMMYY": "26-3-1965",
    "Year": 1965,
    "Month": 3,
    "Date": 26,
    "Place (as close as possible)": "Min Ye Kyaw Swa Road",
    "Township Raw": "Lanmadaw",
    "State/Region": "Yangon",
    "Detail": "St. John's College was nationalized along with 128 other private schools, particularly those from foreign missions. ",
    "Source": "UK National Archives. 1965. DB 1461/2. For photo see: https://www.irrawaddy.com/specials/on-this-day/day-myanmars-socialist-govt-nationalized-missionary-private-schools.html",
    "What is there now?": "Basic Education High School 1 - Lanmadaw",
    "Township": "Lanmadaw",
    "TspCentroidLat": 16.7775059068245,
    "TspCentroidLon": 96.1438467795595
  },
  {
    "ID": 74,
    "DDMMYY": "26-3-1965",
    "Year": 1965,
    "Month": 3,
    "Date": 26,
    "Place (as close as possible)": "49th and Anawratha",
    "Township Raw": "Pazundaung",
    "State/Region": "Yangon",
    "Detail": "Sithambara Reddiar High School was nationalized along with 128 other schools. ",
    "Source": "UK National Archives. 1965. DB 1461/2.",
    "Images": [
      {
        "id": "attJwJK7WM6mxB7Uu",
        "width": 0,
        "height": 0,
        "url": "https://dl.airtable.com/.attachments/32613363144ebc2eb8374ed8a984ea47/bb185362/ReddiarHighSchool-BEHS1Pazundaung.HEIC?ts=1654838747&userId=usrplMOfuVm33ljLk&cs=56041d44706348a3",
        "filename": "Reddiar High School - BEHS 1 Pazundaung .HEIC",
        "size": 1795485,
        "type": "image/heic",
        "thumbnails": {
          "small": {
            "url": "https://dl.airtable.com/.attachmentThumbnails/4e573c08f8639183db0694043d15ec17/01c0f9e3.png?ts=1654838747&userId=usrplMOfuVm33ljLk&cs=3b78c923bf93c48f",
            "width": 48,
            "height": 36
          },
          "large": {
            "url": "https://dl.airtable.com/.attachmentThumbnails/a953c4acb36ef4b9fe3a390c2e1556ea/da212ddb.png?ts=1654838747&userId=usrplMOfuVm33ljLk&cs=2ddab456d2805d2d",
            "width": 683,
            "height": 512
          },
          "full": {
            "url": "https://dl.airtable.com/.attachmentThumbnails/b1a723c9c0b14c6f2f1deaba70bfb2ae/d4bfded7.png?ts=1654838747&userId=usrplMOfuVm33ljLk&cs=1436e78699c1f5a1",
            "width": 3000,
            "height": 3000
          }
        }
      },
      {
        "id": "att58zBI0DIjlAUQ2",
        "width": 0,
        "height": 0,
        "url": "https://dl.airtable.com/.attachments/9024b00e11a5cd895437a177780b8fa3/24d6add2/Rander.HEIC?ts=1654838747&userId=usrplMOfuVm33ljLk&cs=37ba9af90b2f3e32",
        "filename": "Rander.HEIC",
        "size": 1950119,
        "type": "image/heic",
        "thumbnails": {
          "small": {
            "url": "https://dl.airtable.com/.attachmentThumbnails/a8faac0aabb1fe8cf8d823098d3cffc7/c7643efc.png?ts=1654838747&userId=usrplMOfuVm33ljLk&cs=f4920e7297088980",
            "width": 48,
            "height": 36
          },
          "large": {
            "url": "https://dl.airtable.com/.attachmentThumbnails/7d6429c7fd5dcb97b08306dc595f796b/8ebac050.png?ts=1654838747&userId=usrplMOfuVm33ljLk&cs=97e3a73cb38b5d45",
            "width": 683,
            "height": 512
          },
          "full": {
            "url": "https://dl.airtable.com/.attachmentThumbnails/1ae9be1dbff23ead6f1e10e0c60f2402/889bc348.png?ts=1654838747&userId=usrplMOfuVm33ljLk&cs=45ad900b5400153c",
            "width": 3000,
            "height": 3000
          }
        }
      }
    ],
    "What is there now?": "Basic Education High School 1 Pazundaung",
    "Township": "Pazundaung",
    "TspCentroidLat": 16.7775879595984,
    "TspCentroidLon": 96.1751330750052,
    "ImageIds": ["attJwJK7WM6mxB7Uu/png", "att58zBI0DIjlAUQ2/png"]
  },
  {
    "ID": 75,
    "Year": 2006,
    "Month": 9,
    "Date": 19,
    "Place (as close as possible)": "Myaungtaka, Kankalay and Kalakone Hamlets",
    "Township Raw": "Hmawbi",
    "State/Region": "Yangon",
    "Detail": "1700 acres of paddy fields in Myaungtaka, Kankalay and Kalakone Hamlets in Hmawbi Township were started to be confiscated by Qtr Master Maj-Gen Tin Hla without compensations. The farmers were left jobless and homeless.",
    "Source": "https://www.burmalibrary.org/sites/burmalibrary.org/files/obl/docs4/Rangoon-docs.pdf",
    "Township": "Hmawbi",
    "TspCentroidLat": 17.1324758606138,
    "TspCentroidLon": 96.0267670581914
  },
  {
    "ID": 76,
    "Y": 165046.8,
    "Year": 1994,
    "Place (as close as possible)": "Thamine Butar Yone (Railway Station Ward) ",
    "Township Raw": "Mayangon? Kamaryut?",
    "State/Region": "Yangon",
    "Detail": "Confiscation. Those who had NRC in that area were able to get a room. Replaced with High Rises with 6000 rooms. Many people suffered from this incident and loss.",
    "Source": "https://www.burmalibrary.org/sites/burmalibrary.org/files/obl/docs4/Rangoon-docs.pdf",
    "x copy": 960720.7,
    "Township": "Mayangone",
    "TspCentroidLat": 16.8623209918807,
    "TspCentroidLon": 96.1423510329659
  },
  {
    "ID": 77,
    "Year": 2000,
    "Place (as close as possible)": "Psychiatric Hospital",
    "State/Region": "Yangon",
    "Detail": "Relocated to Ywatahgyi in East Dagon. Relaced with military HSG quarters (DSGS Office). ",
    "Township": "North Okkalapa",
    "TspCentroidLat": 16.923437454589,
    "TspCentroidLon": 96.1740220224918
  },
  {
    "ID": 78,
    "Year": 1990,
    "Month": 4,
    "Date": 17,
    "Township Raw": "Dagon Myothit",
    "State/Region": "Yangon",
    "Detail": "Confiscation Threat. ",
    "Township": "Dagon Myothit (North)",
    "TspCentroidLat": 16.8806356833992,
    "TspCentroidLon": 96.1892929308782
  },
  {
    "ID": 79,
    "Year": 2007,
    "Month": 3,
    "Date": 14,
    "Place (as close as possible)": "Rice fields in the Thilawa SEW site",
    "Township Raw": "Thanlyin and Kyauktan",
    "State/Region": "Yangon",
    "Detail": "Thousands of acres of rice fields in the Thilawa SEZ site are being confiscated by junta, leaving thousands of farmers landless. One former committed suicide by leaping into a researvoir ",
    "Source": "https://www.burmalibrary.org/sites/burmalibrary.org/files/obl/docs4/Rangoon-docs.pdf",
    "Township": "Thanlyin",
    "TspCentroidLat": 16.7963307456914,
    "TspCentroidLon": 96.3292748064167
  },
  {
    "ID": 80,
    "Year": 2006,
    "Month": 7,
    "Date": 12,
    "Place (as close as possible)": "Myaungtaka, Kankalay and Kalakone Hamlets",
    "Township Raw": "Hmawbi",
    "State/Region": "Yangon",
    "Detail": "1700 acres of paddy fields were started to be confiscated primarily to build No.2. Steel Factory . Over 200 farmers were affected. They received no compensation. Farmers prepared to report this case to ILO.",
    "Source": "https://www.burmalibrary.org/sites/burmalibrary.org/files/obl/docs4/Rangoon-docs.pdf",
    "Township": "Hmawbi",
    "TspCentroidLat": 17.1324758606138,
    "TspCentroidLon": 96.0267670581914
  },
  {
    "ID": 81,
    "Year": 2000,
    "Place (as close as possible)": "Ye-pyu village tract (Bawle Island)",
    "Township Raw": "Htantabin",
    "State/Region": "Yangon",
    "Detail": "Over 300 acres of grazing land converted to agricultural land. This became a loss for former owners of livestocks.  If cattles and cows are found grazing on the crops, the owners will be charged with 3 years of imprisonment and a fine of 3500 kyats. ",
    "Source": "https://www.burmalibrary.org/sites/burmalibrary.org/files/obl/docs4/Rangoon-docs.pdf",
    "Township": "Htantabin",
    "TspCentroidLat": 17.0472603632163,
    "TspCentroidLon": 95.9092611893596
  },
  {
    "ID": 84,
    "Year": 2022,
    "Month": 4,
    "Date": 4,
    "Place (as close as possible)": "Htankone",
    "Township Raw": "Kanbalu",
    "State/Region": "Sagaing",
    "Detail": "There are two houses were confiscated by SAC – one is owned by Daw Khin Myo Chit who is a NLD state and region MP and another one is Business man, both live in Htankone village, Kanbalu township. Daw Khin Myo Chit’s husband was filed under section 50 (j) and as soon as the house was sealed by SAC.",
    "Shorten form of Source": "The Irrawaddy",
    "Source": "https://www.facebook.com/theirrawaddyburmese/posts/5549812945062812",
    "Township": "Kanbalu",
    "TspCentroidLat": 23.2190809722834,
    "TspCentroidLon": 95.7034550545318
  },
  {
    "ID": 85,
    "Year": 2022,
    "Month": 4,
    "Date": 28,
    "Place (as close as possible)": "Corner of 38 street * 81 street and 82 street",
    "Township Raw": "Aaha Aungmye",
    "State/Region": "Mandalay",
    "Detail": "The SAC accused of Thuriya clinic which accepts CDM medical doctor so the clinic is closed off forcedly. Ten solider with full of weapon came to arrest clinic owner who also is a medical doctor at 26 April 2022.  “On that day solider without uniform but with full of weapons come and tortured Dr. Aung Aung Tun (owner) and then arrested him including family members, said by one of family members.”",
    "Shorten form of Source": "The Irrawaddy",
    "Source": "https://www.facebook.com/theirrawaddyburmese/posts/5615887538455352",
    "Township": "Mahaaungmyay",
    "TspCentroidLat": 21.961427716977,
    "TspCentroidLon": 96.0867929127193
  }
]
