[
  {
    "id": 1,
    "type": "paragraph",
    "caption_en": "Historically, the Myanmar state used urban planning regulations, property transaction regulations, and land and enterprise nationalisation laws to nationalise properties and justify confiscation by the State and military-associated businesses. In addition to urban planning related regulations, the state has used other regulations,  targeted against specific groups - such as racialised ethnic and religious groups, ‘potential foreigners’, and political opponents, particularly following 1988 and the 2021 Spring Revolution. Through large-scale  nationalisation of enterprises in furtherance of establishing a socialist economy in the 1960s, families lost their homes, properties, businesses and assets.\n",
    "step": "01",
    "caption_mm": "သမိုင်းတစ်လျောက်တွင် မြန်မာအစိုးရသည် မြေယာ ပိုင်ဆိုင်မှုများအား ပြည်သူပိုင်သိမ်းရန်နှင့် နိုင်ငံတော်၊ စစ်တပ်တို့နှင့်ဆက်နွယ်သည့် စီးပွားရေးလုပ်ငန်းများမှ မြေသိမ်းခြင်းမှာ လျော်ကန်မှုရှိကြောင်း အကြောင်းပြချပေးနိုင်ရန်အတွက်  မြို့ပြစီမံကိန်းဆိုင်ရာ စည်းမျဉ်းစည်းကမ်းများ၊ အိမ်ခြံမြေ ဝယ်ယူမှုဆိုင်ရာ စည်းမျဉ်းစည်းကမ်းများ နှင့် မြေယာနှင့် လုပ်ငန်းများဆိုင်ရာ ပြည်သူပိုင်သိမ်းရေး ဥပဒေများ အား အသုံးချခဲ့သည်။ နိုင်ငံတော်သည် မြို့ပြစီမံကိန်းနှင့် စပ်ဆက်သည့် စည်းမျဉ်းစည်းကမ်းများသာမက လူမျိုးရေးနှင့် ဘာသာရေးအရ ခွဲခြားခံရသည့် အုပ်စုများ၊ “နိုင်ငံခြားသားများအဖြစ် သတ်မှတ်ခြင်းခံရသူများ” နှင့် ၁၉၈၈ နှင့် ၂၀၂၁ နွေဦးတော်လှန်ရေးပြီးနောက် ဆန့်ကျင်ဘက် နိုင်ငံရေးအုပ်စုများ စသည်တို့အပေါ်  ပြစ်မှတ်ထား၍ အခြား ပြဌာန်းချက်များအားလည်း အသုံးချခဲ့သည်။ ၁၉၆၀ နှစ်များတွင် ဆိုရှယ်လစ်စီးပွားရေးအား ဖော်ဆောင်ရန် ပြည်သူပိုင်သိမ်းခြင်းအား  အများအပြားလုပ်ဆောင်ခဲ့ရာမှ မိသားစုအများအပြားမှာ အိမ်၊ခြံ၊ မြေ၊ စီးပွားရေးလုပ်ငန်းနှင့် ပိုင်ဆိုင်မှုများအား ဆုံးရှုံးခဲ့ရသည်။"
  },
  {
    "id": 2,
    "type": "image",
    "Image": [
      {
        "id": "attdsv4kSAig8w2w3",
        "width": 1500,
        "height": 2000,
        "url": "https://dl.airtable.com/.attachments/7a2f480c2cda345b1405f954d02a6468/f61cc533/n1_KoSai.JPG?ts=1660573231&userId=usrplMOfuVm33ljLk&cs=63418c077113819b",
        "filename": "n1_KoSai.JPG",
        "size": 195860,
        "type": "image/jpeg",
        "thumbnails": {
          "small": {
            "url": "https://dl.airtable.com/.attachmentThumbnails/0b823dbb59df3a0d461bb68883f5df9d/c11e90b0?ts=1660573231&userId=usrplMOfuVm33ljLk&cs=adf8120ba696bbf3",
            "width": 27,
            "height": 36
          },
          "large": {
            "url": "https://dl.airtable.com/.attachmentThumbnails/e976e866a539ec311d05934668d11e8c/1c2bda5d?ts=1660573231&userId=usrplMOfuVm33ljLk&cs=9ca25c7f75df24e4",
            "width": 512,
            "height": 683
          },
          "full": {
            "url": "https://dl.airtable.com/.attachmentThumbnails/5b305d7bf833158f9e8df5bb2e0e626a/d5285d22?ts=1660573231&userId=usrplMOfuVm33ljLk&cs=fbc8ccb65e7b7da8",
            "width": 3000,
            "height": 3000
          }
        }
      }
    ],
    "caption_en": "A jacket printed with logos of military-associated enterprises which possibly resulted in confiscations either directly or indirectly in the past (Sai, 2022)\n",
    "step": "01",
    "reference": "Artwork by Ko Sai, at the exhibition \"Please enjoy our trageties\", 2022. ",
    "caption_mm": "အတိတ်တွင် မြေသိမ်းမှုများအား တိုက်ရိုက် သို့မဟုတ် သွယ်ဝိုက်၍ ဖြစ်ပေါ်စေနိုင်ခဲ့သည့် စစ်တပ်နှင့် ဆက်နွယ်နေသည့် စီးပွားရေးလုပ်ငန်းများ၏ လိုဂိုများဖြင့် ရိုက်နှိပ်ထားသော ဂျာကင်အင်္ကျီ (စိုင်း ၂၀၂၂)",
    "ImageIds": ["attdsv4kSAig8w2w3/jpeg"]
  },
  {
    "id": 3,
    "type": "paragraph",
    "caption_en": "Following Ne Win’s 1962 coup d’etat, the Revolutionary Council began a process of nationalisations that they charactarise as wresting the economy from anti-revolutionary forces. They re-arranged plots in many parts f the city, as well as confiscating the vacant land followed by fire incidents.\n",
    "step": "02",
    "caption_mm": "၁၉၆၂ ခုနှစ် နေဝင်းအာဏာသိမ်းပြီးနောက် တော်လှန်ရေးကောင်စီသည် ၎င်းတို့အား ဆန့်ကျင်သည့် အင်အားစုများ၏ စီးပွားရေးကို နှိမ်နှင်းသည့်  ပြည်သူပိုင်သိမ်းခြင်းလုပ်ငန်းစဉ်တစ်ရပ်ကို စတင်အကောင်အထည်ဖော်ခဲ့သည်။ ၎င်းတို့သည် မြို့နေရာအနှံ့အပြားရှိ မြေကွက်နေရာများအား ပြန်လည်စီမံခဲ့ကာ မီးလောင်မှုများကြောင့် ဖြစ်ပေါ်ခဲ့သည့် မြေကွက်လပ်များအားလည်း သိမ်းယူခဲ့သည်၊။"
  },
  {
    "id": 4,
    "type": "image",
    "Image": [
      {
        "id": "attr7nw70gNg6yp2v",
        "width": 864,
        "height": 601,
        "url": "https://dl.airtable.com/.attachments/11bb8831831f55ecf703b66075420147/6983778a/n5_nationalisationstamp.jpeg?ts=1660573231&userId=usrplMOfuVm33ljLk&cs=bee643eca31e0ab5",
        "filename": "n5_nationalisation stamp.jpeg",
        "size": 364042,
        "type": "image/jpeg",
        "thumbnails": {
          "small": {
            "url": "https://dl.airtable.com/.attachmentThumbnails/3c29df0caf29cc05e65dbaf4d692e729/f2160fa7?ts=1660573231&userId=usrplMOfuVm33ljLk&cs=e489f59d3a7ce428",
            "width": 52,
            "height": 36
          },
          "large": {
            "url": "https://dl.airtable.com/.attachmentThumbnails/6a3fc83ff2d23ac7523604a58fd5a515/86fd2793?ts=1660573231&userId=usrplMOfuVm33ljLk&cs=fd5f5e17693e0f7a",
            "width": 736,
            "height": 512
          },
          "full": {
            "url": "https://dl.airtable.com/.attachmentThumbnails/0860f428c664cb4c3eb52157d0a95f76/d72d401c?ts=1660573231&userId=usrplMOfuVm33ljLk&cs=df5751482b9d1039",
            "width": 3000,
            "height": 3000
          }
        }
      }
    ],
    "caption_en": "A stamp showing Ne Win's ideology on Burmese way to Socialism (1971, anonymous)\n",
    "step": "02",
    "reference": "https://ispmyanmarpeacedesk.com/cool_timeline/%E1%80%86%E1%80%AD%E1%80%AF%E1%80%9B%E1%80%BE%E1%80%9A%E1%80%BA%E1%80%9C%E1%80%85%E1%80%BA%E1%80%9C%E1%80%99%E1%80%BA%E1%80%B8%E1%80%85%E1%80%89%E1%80%BA%E1%80%95%E1%80%AB%E1%80%90%E1%80%AE%E1%80%A1/",
    "caption_mm": "နေဝင်း၏ မြန်မာ့နည်းမြန်မာ့ဟန် ဆိုရှယ်လစ်ဝါဒအား ဖော်ပြနေသည့် တံဆိပ်ခေါင်းတစ်ခု (၁၉၇၁ ခုနှစ်၊ ရင်းမြစ်- မသိ)",
    "ImageIds": ["attr7nw70gNg6yp2v/jpeg"]
  },
  {
    "id": 7,
    "type": "paragraph",
    "caption_en": "Nationalisation under Ne Win began with the 1963 Enterprise Nationalisation law. However, the nationalisations were piecemeal, beginning with banks in 1963, followed by wholesale markets and warehouses in 1964, and schools in 1965. The majority of the  key employees in private schools were foreigners such as Indians, Chinese, British and Americans, particularly those working in mission schools or schools teaching in Chinese or Indian languages.\n",
    "step": "04",
    "caption_mm": "နေဝင်းလက်အောက်တွင် ပြည်သူပိုင်သိမ်းခြင်းအား ၁၉၆၃ ခုနှစ်၊ လုပ်ငန်းများပြည်သူပိုင်ပြုလုပ်ခြင်းဥပဒေပြဌာန်းပြီးနောက် စတင်ခဲ့သည်။ သို့သော် ပြည်သူပိုင်သိမ်းခြင်းလုပ်ငန်းများအား ၁၉၆၃ ခုနှစ်တွင် ဘဏ်လုပ်ငန်းများအား လည်းကောင်း၊ ၁၉၆၄ ခုနှစ်တွင် လက်ကားဈေးများအား လည်းကောင်း၊ ၁၉၆၅ ခုနှစ်တွင် ကျောင်းများအား လည်းကောင်း   စသည်ဖြင့် တစနှင့်တစ လုပ်ဆောင်ခဲ့ခြင်းဖြစ်သည်။ ကိုယ်ပိုင်ကျောင်းများရှိ ဝန်ထမ်းအများစုမှာ အများအားဖြင့် မစ်ရှင်ကျောင်းများနှင့် တရုတ်နှင့် အိန္ဒိယဘာသာစကားများအား သင်ကြားပေးသည့် အိန္ဒိယ၊ တရုတ်၊ ဗြိတိန် နှင့် အမေရိကန် နိုင်ငံသားများဖြစ်ကြသည်။ "
  },
  {
    "id": 8,
    "type": "image",
    "Image": [
      {
        "id": "attA0WdVS0SiZq2fL",
        "width": 1044,
        "height": 1138,
        "url": "https://dl.airtable.com/.attachments/df38a6f8d6996ae734ef1ba9f0d7f55a/4a565ec2/YGN-18_8_62.jpg?ts=1660573231&userId=usrplMOfuVm33ljLk&cs=4ccfa5e1919fc8b9",
        "filename": "YGN-18_8_62.jpg",
        "size": 511531,
        "type": "image/jpeg",
        "thumbnails": {
          "small": {
            "url": "https://dl.airtable.com/.attachmentThumbnails/5ffe7666f79a40b6ab6fb02da256a175/bd51de3d?ts=1660573231&userId=usrplMOfuVm33ljLk&cs=351a2ca972b7c6f5",
            "width": 33,
            "height": 36
          },
          "large": {
            "url": "https://dl.airtable.com/.attachmentThumbnails/e9284eef78f5f911a6f3c90086639856/bdcb60be?ts=1660573231&userId=usrplMOfuVm33ljLk&cs=fc244d037e704eb7",
            "width": 512,
            "height": 558
          },
          "full": {
            "url": "https://dl.airtable.com/.attachmentThumbnails/706fb112e0a59dc86baff60f11c79410/0176e58f?ts=1660573231&userId=usrplMOfuVm33ljLk&cs=60758522bc12809c",
            "width": 3000,
            "height": 3000
          }
        }
      }
    ],
    "caption_en": "Yangon Vacant Land, Some will be confiscated by the government and some will be built housing!  (2 August 1962, The Hanthawaddy)\n",
    "step": "04",
    "caption_mm": "ရန်ကုန်ရှိ မြေကွက် အလွတ်များ၊ အချို့နေရာများအား အစိုးရမှ သိမ်းဆည်းကာ အချို့နေရာများတွင် အိမ်ရာများတည်ဆောက်မည်။ (၁၉၆၂ ခုနှစ်၊ ဩဂုတ်လ ၊ ဟံသာဝတီ) ",
    "ImageIds": ["attA0WdVS0SiZq2fL/jpeg"]
  },
  {
    "id": 18,
    "type": "image",
    "Image": [
      {
        "id": "attiOi0QcTInqKkgv",
        "width": 681,
        "height": 394,
        "url": "https://dl.airtable.com/.attachments/3be12f62df3cfbdaab64bd0be3f12efb/1d4927d8/n9.jpeg?ts=1660573231&userId=usrplMOfuVm33ljLk&cs=96995460c60b1c33",
        "filename": "n9.jpeg",
        "size": 213090,
        "type": "image/jpeg",
        "thumbnails": {
          "small": {
            "url": "https://dl.airtable.com/.attachmentThumbnails/2fa8af4d5ce0b4893a532d406412c2e5/e95078cb?ts=1660573231&userId=usrplMOfuVm33ljLk&cs=f09dcd67be3a9d44",
            "width": 62,
            "height": 36
          },
          "large": {
            "url": "https://dl.airtable.com/.attachmentThumbnails/9a93f1fb85835b0786507f4ff6c9d9f1/335ff52a?ts=1660573231&userId=usrplMOfuVm33ljLk&cs=be7abe3d42ff4841",
            "width": 681,
            "height": 394
          },
          "full": {
            "url": "https://dl.airtable.com/.attachmentThumbnails/8ddbc7d7d766a0415897d973d8035795/9f678e5c?ts=1660573231&userId=usrplMOfuVm33ljLk&cs=cee9f909b24752bd",
            "width": 3000,
            "height": 3000
          }
        }
      }
    ],
    "caption_en": "Yangon-Mandalay gas station is scheduled to be confiscated within October! (September 25, 1963. Hanthawaddy)\n",
    "step": "05",
    "caption_mm": "အောက်တိုဘာလအတွင်း ရန်မန်း ဓါတ်ဆီဆိုင် အပြီးသိမ်းရန် စီစဉ်ထားပြီ။ (စက်တင်ဘာလ ၂၅ ရက်၊ ၁၉၆၃ ခုနှစ်၊ ဟံသာဝတီ) ",
    "ImageIds": ["attiOi0QcTInqKkgv/jpeg"]
  },
  {
    "id": 20,
    "type": "image",
    "Image": [
      {
        "id": "attJYYVjJu7WyAxkA",
        "width": 1620,
        "height": 870,
        "url": "https://dl.airtable.com/.attachments/7f9e07786266ed753aac3b9961fb72d1/7f668e8a/March201964TheNation.png?ts=1660573231&userId=usrplMOfuVm33ljLk&cs=1a12c170ced0373f",
        "filename": "March 20 1964 The Nation.png",
        "size": 1697840,
        "type": "image/png",
        "thumbnails": {
          "small": {
            "url": "https://dl.airtable.com/.attachmentThumbnails/2dd404194bfef27eaa3979c76377e94d/c5530fb3?ts=1660573231&userId=usrplMOfuVm33ljLk&cs=3e4d8276fb1b7972",
            "width": 67,
            "height": 36
          },
          "large": {
            "url": "https://dl.airtable.com/.attachmentThumbnails/850d08a4dc1114cc7939a3e137987c6c/d012d335?ts=1660573231&userId=usrplMOfuVm33ljLk&cs=373160599d5c1c1a",
            "width": 953,
            "height": 512
          },
          "full": {
            "url": "https://dl.airtable.com/.attachmentThumbnails/cd592fac0e2a7718bfaa7928f5ac2350/b62e65e7?ts=1660573231&userId=usrplMOfuVm33ljLk&cs=6bd6ea3f5ef43e1b",
            "width": 3000,
            "height": 3000
          }
        }
      }
    ],
    "caption_en": "20 March 1964, The Nation\n",
    "step": "05",
    "caption_mm": "၂၀ ရက် မတ်လ ၁၉၆၄ ခုနှစ်၊ နေးရှင်းသတင်းစာ",
    "ImageIds": ["attJYYVjJu7WyAxkA/png"]
  },
  {
    "id": 26,
    "type": "image",
    "Image": [
      {
        "id": "attW2DEF7NWkYOnJQ",
        "width": 552,
        "height": 558,
        "url": "https://dl.airtable.com/.attachments/ab06d49bdd5e719784890bb677f15ebe/ebbf1389/Dontlament-TheNation23March1964p_1.png?ts=1660573231&userId=usrplMOfuVm33ljLk&cs=d744ae14d7886bd4",
        "filename": "Don’t lament - The Nation, 23 March 1964, p_ 1.png",
        "size": 317733,
        "type": "image/png",
        "thumbnails": {
          "small": {
            "url": "https://dl.airtable.com/.attachmentThumbnails/60bf1122a3be3730a51f6b8c82243794/19247383?ts=1660573231&userId=usrplMOfuVm33ljLk&cs=7f6d791a332957e7",
            "width": 36,
            "height": 36
          },
          "large": {
            "url": "https://dl.airtable.com/.attachmentThumbnails/80e48cad0a6a5c4e62509d17cfff1829/0434b5db?ts=1660573231&userId=usrplMOfuVm33ljLk&cs=76530ae60aa5c524",
            "width": 512,
            "height": 518
          },
          "full": {
            "url": "https://dl.airtable.com/.attachmentThumbnails/9dbe4c8866f691631463e24649d12d55/e51fe1f5?ts=1660573231&userId=usrplMOfuVm33ljLk&cs=7e68670e41e16c4d",
            "width": 3000,
            "height": 3000
          }
        }
      }
    ],
    "caption_en": "23 March 1964, The Nation\n",
    "step": "05",
    "caption_mm": "၂၃ ရက် မတ်လ ၁၉၆၄ ခုနှစ်၊ နေးရှင်းသတင်းစာ",
    "ImageIds": ["attW2DEF7NWkYOnJQ/png"]
  },
  {
    "id": 9,
    "type": "image",
    "Image": [
      {
        "id": "attePhymKL7UWvmSG",
        "width": 311,
        "height": 334,
        "url": "https://dl.airtable.com/.attachments/c3ef7eda78a8acc7671dee8a5eb2f203/4e0927cd/n6nationalisationattoungoo.jpg?ts=1660573231&userId=usrplMOfuVm33ljLk&cs=f6932703d107a036",
        "filename": "n6 nationalisation at toungoo.jpg",
        "size": 103702,
        "type": "image/jpeg",
        "thumbnails": {
          "small": {
            "url": "https://dl.airtable.com/.attachmentThumbnails/e7d2d44486d77cfeed607a6a948eaa35/2b8028b6?ts=1660573231&userId=usrplMOfuVm33ljLk&cs=6d149184626e6df6",
            "width": 34,
            "height": 36
          },
          "large": {
            "url": "https://dl.airtable.com/.attachmentThumbnails/d236a4e5149d33043646a97c3c6dfc8f/394b8c8b?ts=1660573231&userId=usrplMOfuVm33ljLk&cs=503b05c5bdd83d2f",
            "width": 311,
            "height": 334
          },
          "full": {
            "url": "https://dl.airtable.com/.attachmentThumbnails/a1b2ef8b945028209fa947f439ea8357/b3198c3a?ts=1660573231&userId=usrplMOfuVm33ljLk&cs=a49abdb80f406c8b",
            "width": 3000,
            "height": 3000
          }
        }
      }
    ],
    "caption_en": "10 April 1964, The Nation\n",
    "step": "05",
    "caption_mm": "၁၀ ရက် ဧပြီလ ၁၉၆၄ ခုနှစ်၊ နေးရှင်းသတင်းစာ",
    "ImageIds": ["attePhymKL7UWvmSG/jpeg"]
  },
  {
    "id": 10,
    "type": "image",
    "Image": [
      {
        "id": "attRUvm6bO7nd09NB",
        "width": 846,
        "height": 758,
        "url": "https://dl.airtable.com/.attachments/f235141d3fa009f0fc463930b72df70e/c3b425e3/Screenshot2022-06-06at14_26_31.png?ts=1660573231&userId=usrplMOfuVm33ljLk&cs=750330ead3d0b5f3",
        "filename": "Screenshot 2022-06-06 at 14_26_31.png",
        "size": 702455,
        "type": "image/png",
        "thumbnails": {
          "small": {
            "url": "https://dl.airtable.com/.attachmentThumbnails/e7000a1bd197d289b5bfb82609f07c29/fb6c752b?ts=1660573231&userId=usrplMOfuVm33ljLk&cs=0b6a6ed211ff93c8",
            "width": 40,
            "height": 36
          },
          "large": {
            "url": "https://dl.airtable.com/.attachmentThumbnails/6aa185585d7fe44410448e84ecf90901/eeb89cdc?ts=1660573231&userId=usrplMOfuVm33ljLk&cs=d68698320ff680b8",
            "width": 571,
            "height": 512
          },
          "full": {
            "url": "https://dl.airtable.com/.attachmentThumbnails/8929a54d8bf6c84f61a42a7bff5d96c9/702b8f87?ts=1660573231&userId=usrplMOfuVm33ljLk&cs=ec36c08793542d8c",
            "width": 3000,
            "height": 3000
          }
        }
      }
    ],
    "caption_en": "10 April 1964, The Nation\n",
    "step": "05",
    "caption_mm": "၁၀ ရက် ဧပြီလ ၁၉၆၄ ခုနှစ်၊ နေးရှင်းသတင်းစာ",
    "ImageIds": ["attRUvm6bO7nd09NB/png"]
  },
  {
    "id": 19,
    "type": "image",
    "Image": [
      {
        "id": "attWEQ79a78oGeTC6",
        "width": 1269,
        "height": 787,
        "url": "https://dl.airtable.com/.attachments/0e442c5da7335e4391ac4e9e5fc67b07/a90b0b6b/19681217nationalisation.jpg?ts=1660573231&userId=usrplMOfuVm33ljLk&cs=30e209ffe1ec7dc6",
        "filename": "19681217 nationalisation.jpg",
        "size": 287026,
        "type": "image/jpeg",
        "thumbnails": {
          "small": {
            "url": "https://dl.airtable.com/.attachmentThumbnails/7f0493e14839de2f780a105126803cb1/e4660526?ts=1660573231&userId=usrplMOfuVm33ljLk&cs=7d3c437d6caecf3a",
            "width": 58,
            "height": 36
          },
          "large": {
            "url": "https://dl.airtable.com/.attachmentThumbnails/0b99e6dec01e63f67d875329a7d163a8/79b690f6?ts=1660573231&userId=usrplMOfuVm33ljLk&cs=b00db725de4e6a3e",
            "width": 826,
            "height": 512
          },
          "full": {
            "url": "https://dl.airtable.com/.attachmentThumbnails/7ad9111f36d912510387b37ec391e816/4ee0eb17?ts=1660573231&userId=usrplMOfuVm33ljLk&cs=4d5f2cf9d6ea36e6",
            "width": 3000,
            "height": 3000
          }
        }
      }
    ],
    "caption_en": "17 December 1968, Working People's Daily\n",
    "step": "05",
    "caption_mm": "၁၇ ရက် ဒီဇင်ဘာလ ၁၉၆၈ ခုနှစ်၊ လုပ်သားပြည်သူ နေ့စဉ် ",
    "ImageIds": ["attWEQ79a78oGeTC6/jpeg"]
  },
  {
    "id": 11,
    "type": "image",
    "Image": [
      {
        "id": "attigvv5BJpySCD7E",
        "width": 1555,
        "height": 642,
        "url": "https://dl.airtable.com/.attachments/c9ab8cc2cba6803ceb913ed174f3f90f/1a8f1729/19650402SouthChina.jpg?ts=1660573231&userId=usrplMOfuVm33ljLk&cs=b8d543428cf583e0",
        "filename": "19650402 South China.jpg",
        "size": 209690,
        "type": "image/jpeg",
        "thumbnails": {
          "small": {
            "url": "https://dl.airtable.com/.attachmentThumbnails/c6ea1805a022f9cbe1cc2d53b680ba4c/111fc773?ts=1660573231&userId=usrplMOfuVm33ljLk&cs=ecb2338889d74eb7",
            "width": 87,
            "height": 36
          },
          "large": {
            "url": "https://dl.airtable.com/.attachmentThumbnails/932fce5f9ba2b2cdfb53afc048a018ad/493dbf15?ts=1660573231&userId=usrplMOfuVm33ljLk&cs=d9997e2c6205b435",
            "width": 1240,
            "height": 512
          },
          "full": {
            "url": "https://dl.airtable.com/.attachmentThumbnails/23e9ef908729ab0e63df79f235f19065/97a68a53?ts=1660573231&userId=usrplMOfuVm33ljLk&cs=03ee328ebff1faff",
            "width": 3000,
            "height": 3000
          }
        }
      }
    ],
    "caption_en": "2 April 1965, South China Morning Post\n",
    "step": "05",
    "reference": "2 April 1965, South China Morning Post, p.20",
    "caption_mm": "၂ ရက် ဧပြီလ ၁၉၆၅ ခုနှစ်၊ South China Morning Post",
    "ImageIds": ["attigvv5BJpySCD7E/jpeg"]
  },
  {
    "id": 12,
    "type": "paragraph",
    "caption_en": "After nationalisation all foreign teachers were fired. As nationalisation continued, Ne Win demonetised large bank notes in 1964 and severely restricted international remittances, curtailing foreign residents’ abilities to send money home to their families. Over 300,000 people of Indian descent - some with Myanmar citizenship and most eligible for Myanmar citizenship emigrated, leaving behind thousands of residential properties.\n",
    "step": "06",
    "caption_mm": "ပြည်သူပိုင်သိမ်းပြီးနောက် နိုင်ငံခြားသား ကျောင်းဆရာအားလုံး အလုပ်မှ ထုတ်ပယ်ခံခဲ့ရသည်။ ပြည်သူပိုင်သိမ်းခြင်းလုပ်ငန်းအား ဆက်လက်လုပ်ဆောင်ခဲ့ရာတွင် ၁၉၆၄ ခုနှစ်တွင် တန်ဖိုးကြီးငွေစက္ကူများအား ဖျက်သိမ်းကာ အပြည်ပြည်ဆိုင်ရာသို့ ငွေလွှဲခြင်းများအား ဆိုးရွားစွာတင်းကြပ်ခဲ့ရာ ပြည်တွင်းရှိ နိုင်ငံခြားသားများမှ ၎င်းတို့၏ မိသားစုထံငွေပေးပို့ရာတွင် အခက်အခဲများ ကြုံတွေ့ခဲ့ကြရသည်။ မြန်မာနိုင်ငံသားများနှင့် နိုင်ငံသားပြုရန် အချက်အလက်အပြည့်မီဆုံးသူများ အပါအဝင် အိန္ဒိယနွယ်ဖွား ဦးရေ ၃၀၀,၀၀၀ ကျော်မှာ ထောင်ပေါင်းများစွာသော နေရာထိုင်ခင်း ပိုင်ဆိုင်မှုများအား ချန်ရစ်ကာ နိုင်ငံအတွင်းမှ ထွက်ခွာသွားခဲ့ရသည်။ "
  },
  {
    "id": 13,
    "type": "image",
    "Image": [
      {
        "id": "att6dCeTtIJTEY6uR",
        "width": 1670,
        "height": 598,
        "url": "https://dl.airtable.com/.attachments/199c842d02789b174496b358dff6d4c7/8d0b4eec/19640422TheNation.jpg?ts=1660573231&userId=usrplMOfuVm33ljLk&cs=cb48b469d08b4932",
        "filename": "19640422 The Nation.jpg",
        "size": 152137,
        "type": "image/jpeg",
        "thumbnails": {
          "small": {
            "url": "https://dl.airtable.com/.attachmentThumbnails/117e79b881b241527f2615ad9c4bd6d7/460c4b65?ts=1660573231&userId=usrplMOfuVm33ljLk&cs=c3a4ea6a599c2be6",
            "width": 101,
            "height": 36
          },
          "large": {
            "url": "https://dl.airtable.com/.attachmentThumbnails/3ebb3d83f558285b71f8ee7d943d08b0/8df4ab30?ts=1660573231&userId=usrplMOfuVm33ljLk&cs=535b28b2e695c708",
            "width": 1430,
            "height": 512
          },
          "full": {
            "url": "https://dl.airtable.com/.attachmentThumbnails/7174535993462dd36d0e7d889e2427f4/4bf1becd?ts=1660573231&userId=usrplMOfuVm33ljLk&cs=6b2355aebac05816",
            "width": 3000,
            "height": 3000
          }
        }
      }
    ],
    "caption_en": "22 April 1964 The Nation\n",
    "step": "06",
    "caption_mm": "၂၂ ရက် ဧပြီလ ၁၉၆၄ ခုနှစ်၊ နေးရှင်းသတင်းစာ",
    "ImageIds": ["att6dCeTtIJTEY6uR/jpeg"]
  },
  {
    "id": 25,
    "type": "image",
    "Image": [
      {
        "id": "attivSPCnC04guSGk",
        "width": 1705,
        "height": 586,
        "url": "https://dl.airtable.com/.attachments/4a057fa61940ee2cd4390d28fc7d50c7/18b3524e/19640628.jpg?ts=1660573231&userId=usrplMOfuVm33ljLk&cs=1d18489372d86685",
        "filename": "19640628.jpg",
        "size": 190460,
        "type": "image/jpeg",
        "thumbnails": {
          "small": {
            "url": "https://dl.airtable.com/.attachmentThumbnails/4f52e92ae73d3c68d04304eee7b7f19c/664eab8c?ts=1660573231&userId=usrplMOfuVm33ljLk&cs=606cedf87d5b9aa3",
            "width": 105,
            "height": 36
          },
          "large": {
            "url": "https://dl.airtable.com/.attachmentThumbnails/80033a65d82f6d602cb50c2b8173df34/705f335f?ts=1660573231&userId=usrplMOfuVm33ljLk&cs=01e806cf13d5358e",
            "width": 1490,
            "height": 512
          },
          "full": {
            "url": "https://dl.airtable.com/.attachmentThumbnails/7d07b28f56d7f14e533fe48602538bd4/0a555c4f?ts=1660573231&userId=usrplMOfuVm33ljLk&cs=eab50ec580301c76",
            "width": 3000,
            "height": 3000
          }
        }
      }
    ],
    "caption_en": "28 June 1964\n",
    "step": "06",
    "reference": "Newspaper title missing",
    "caption_mm": "၂၈ ရက် ဇွန်လ၊ ၁၉၆၄",
    "ImageIds": ["attivSPCnC04guSGk/jpeg"]
  },
  {
    "id": 24,
    "type": "image",
    "Image": [
      {
        "id": "attTNAsKM1oc2dxt5",
        "width": 1896,
        "height": 527,
        "url": "https://dl.airtable.com/.attachments/b737fb8b5a9f0c590b4bdf6cbdea31cc/5f4581a2/19640721.jpg?ts=1660573231&userId=usrplMOfuVm33ljLk&cs=b0139128516e494f",
        "filename": "19640721.jpg",
        "size": 160737,
        "type": "image/jpeg",
        "thumbnails": {
          "small": {
            "url": "https://dl.airtable.com/.attachmentThumbnails/3eab0ab977527090a3023c7372358eb1/921a2505?ts=1660573231&userId=usrplMOfuVm33ljLk&cs=49cffe925037f0f2",
            "width": 130,
            "height": 36
          },
          "large": {
            "url": "https://dl.airtable.com/.attachmentThumbnails/f9ebd011c604a6e5b67c3ce835da7ffe/8d112117?ts=1660573231&userId=usrplMOfuVm33ljLk&cs=b09885766f2b9bfb",
            "width": 1842,
            "height": 512
          },
          "full": {
            "url": "https://dl.airtable.com/.attachmentThumbnails/6848dab9b20db5952940f95885771906/810d4694?ts=1660573231&userId=usrplMOfuVm33ljLk&cs=cc72dd7d3cefa37f",
            "width": 3000,
            "height": 3000
          }
        }
      }
    ],
    "caption_en": "21 July 1964, Times of London\n",
    "step": "06",
    "caption_mm": "၂၁ ရက် ဇူလိုင်လ ၁၉၆၄ ခုနှစ်၊ Times of London",
    "ImageIds": ["attTNAsKM1oc2dxt5/jpeg"]
  },
  {
    "id": 14,
    "type": "paragraph",
    "caption_en": "Following the 2021 military coup, confiscations have also been used for punitive purposes against the resistance. In September 2021, the Myanmar Military announced the confiscation of properties linked to the National Unity Government (NUG) and the Committee Representing Pyithu Hluttaw (CRPH) by referring to them as ‘terrorist organisations’ under the Unlawful Associations Act. Under the colonial legislation still in place in Myanmar, those guilty of associating with unlawful associations can have their property seized and confiscated.  Since the February coup in 2021, more than 547 buildings and houses have been seized and nationalised nationwide as of 31 March 2022 (AAPP, 2022).\n",
    "step": "07",
    "caption_mm": "၂၀၁၂ ခုနှစ်အတွင်း စစ်အာဏာသိမ်းပြီးနောက် တော်လှန်ရေးအုပ်စုများကို ပြစ်ဒါဏ်ချမှတ်သည့်ရည်ရွယ်ချက်ဖြင့် မြေသိမ်းမှုများအား ပြုလုပ်ခဲ့သည်။ ၂၀၂၁ ခုနှစ်စက်တင်ဘာလတွင် မြန်မာစစ်တပ်သည် အမျိုးသား ညီညွတ်ရေးအစိုးရ (NUG)၊ ပြည်သူ့လွှတ်တော်ကိုယ်စားပြုကော်မတီ (CRPH)တို့အား မတရားသင်း ဥပဒေ အရ “အကြမ်းဖက်အဖွဲ့အစည်းများ” အဖြစ်ထုတ်ပြန်သတ်မှတ်ကာ ၎င်းတို့နှင့် ဆက်နွယ်နေသူများ၏ နေအိမ်ပိုင်ဆိုင်မှုများအား သိမ်းဆည်းကြောင်း ကြေညာခဲ့သည်။ မြန်မာနိုင်ငံတွင် ဆက်လက် အသက်ဝင်တည်ရှိနေသေးသည့် ကိုလိုနီခေတ် ဥပဒေ အရ မတရားအသင်းအဖွဲ့များနှင့် ဆက်နွယ်မှုရှိသူများမှာ ၎င်းတို့ပိုင်ဆိုင်သည့် ပိုင်ဆိုင်မှုများ သိမ်းဆည်းယူဆောင်ခြင်းကိုခံရနိုင်သည်။ ၃၁ ရက် မတ်လ ၂၀၂၂ ခုနှစ်တွင် ရရှိခဲ့သည့် သတင်းအချက်အလက်များအရ ၂၀၂၁ ခုနှစ်၊ ဖေဖော်ဝေါ်ဝါရီလ စစ်အာဏာသိမ်းပြီးချိန်မှ စတင်ကာ နိုင်ငံတစ်ဝှမ်းရှိ အဆောက်အဦးနှင့် အိမ် ၅၄၇ လုံးထပ် မနည်း ချိတ်ပိတ်ကာ ပြည်သူပိုင်သိမ်းခံခဲ့ရသည်။ (AAPP, 2022)"
  },
  {
    "id": 15,
    "type": "image",
    "Image": [
      {
        "id": "attjj5prvx9k37r0T",
        "width": 451,
        "height": 593,
        "url": "https://dl.airtable.com/.attachments/51587166f292ce76bdf5db24192e3fed/fd8eea89/n10.png?ts=1660573231&userId=usrplMOfuVm33ljLk&cs=5757a7647b0225af",
        "filename": "n10.png",
        "size": 294933,
        "type": "image/png",
        "thumbnails": {
          "small": {
            "url": "https://dl.airtable.com/.attachmentThumbnails/49c025c4194fac096fdafa0a07fafe60/68f97544?ts=1660573231&userId=usrplMOfuVm33ljLk&cs=a00fab21d1086df8",
            "width": 27,
            "height": 36
          },
          "large": {
            "url": "https://dl.airtable.com/.attachmentThumbnails/e5d32e2c262885bf8c7e9cf827375606/edb8630d?ts=1660573231&userId=usrplMOfuVm33ljLk&cs=afb935d51e42eae3",
            "width": 451,
            "height": 593
          },
          "full": {
            "url": "https://dl.airtable.com/.attachmentThumbnails/033aca762096a7e1d932bf7b52e88187/6fd36b72?ts=1660573231&userId=usrplMOfuVm33ljLk&cs=6c89cd6281d18f25",
            "width": 3000,
            "height": 3000
          }
        }
      }
    ],
    "caption_en": "3 March 2022, The Irrawaddy\n",
    "step": "07",
    "reference": "https://www.irrawaddy.com/news/burma/myanmar-junta-seizes-hundreds-of-opponents-homes.html",
    "caption_mm": "၃ ရက် မတ်လ ၂၀၂၂ ခုနှစ်၊ ဧရာဝတီ",
    "ImageIds": ["attjj5prvx9k37r0T/png"]
  },
  {
    "id": 16,
    "type": "paragraph",
    "caption_en": "Legal framework: In contrast to forced evictions which can be understood as a violation of human rights, nationalisation and fire can be justified by existing policies. Regulatory repertoires - including new legislation or ministerial regulations, were often preceded by political change. From this perspective, these urban planning and land control policies - or regulatory repertoires can also act as a vehicle for spatial violence. \n",
    "step": "08",
    "caption_mm": "ဥပဒေမူဘောင်များ- လူ့အခွင့်အရေးချိုးဖောက်ခြင်းဟု သတ်မှတ်ခံရသည့်  အဓမ္မ ပြောင်းရွှေ့ခြင်း နှင့်မတူဘဲ ပြည်သူပိုင်သိမ်းခြင်းနှင့် မီးလောင်မှုတို့မှာ တည်ရှိဆဲမူဝါဒများအရ လုပ်ဆောင်ခြင်းဖြစ်ကြောင်း အကြောင်းပြချက်ပေးနိုင်သည်။ ဥပဒေအသစ်ရေးဆွဲခြင်း သို့မဟုတ် ဝန်ကြီးဌာနဆိုင်ရာ စည်းမျဉ်းစည်းကမ်းများ ချမှတ်ခြင်း အပါအဝင် မူဘောင်ချမှတ်ရေး လုပ်ဆောင်ချက်များမှာ နိုင်ငံရေးအပြောင်းအလဲများနှင့် မကြာခဏ ဆက်စပ်လျက်ရှိသည်။ ဤ ရှုထောင့်အရ အဆိုပြ မြို့ပြစီမံကိန်းနှင့် မြေယာထိန်းချုပ်ရေးဆိုင်ရာ မူဝါဒများ သို့မဟုတ် မူဘောင်ချမှတ်ရေး လုပ်ဆောင်ချက်များသည် မြေပိုင်ဆိုင်အပေါ် အကြမ်းဖက်မှုလုပ်ဆောင်ရန် ယန္တရားတစ်ခုအနေဖြင့် ဆောင်ရွက်နိုင်သည်။ "
  },
  {
    "id": 17,
    "type": "image",
    "Image": [
      {
        "id": "attThjBg8RxAsHPBt",
        "width": 1585,
        "height": 875,
        "url": "https://dl.airtable.com/.attachments/fe8ac2d2fd08fe7a2383ce2293bb8f46/bd9a15ec/n17.png?ts=1660573231&userId=usrplMOfuVm33ljLk&cs=45e59f863ba6eaac",
        "filename": "n17.png",
        "size": 261857,
        "type": "image/png",
        "thumbnails": {
          "small": {
            "url": "https://dl.airtable.com/.attachmentThumbnails/44bb761511e7a15fc7bef5371ce83571/87a388ea?ts=1660573231&userId=usrplMOfuVm33ljLk&cs=3b8492e083ab2201",
            "width": 65,
            "height": 36
          },
          "large": {
            "url": "https://dl.airtable.com/.attachmentThumbnails/c1e398294e88806b9066fc74d083ffc8/fd05c6b4?ts=1660573231&userId=usrplMOfuVm33ljLk&cs=9d6d049fd376023e",
            "width": 927,
            "height": 512
          },
          "full": {
            "url": "https://dl.airtable.com/.attachmentThumbnails/33df5441c283f70acfb05ccf62facc92/1791dfe2?ts=1660573231&userId=usrplMOfuVm33ljLk&cs=82ed355027d99073",
            "width": 3000,
            "height": 3000
          }
        }
      }
    ],
    "caption_en": "Legal basis for nationalisation\n",
    "step": "08",
    "caption_mm": "ပြည်သူပိုင်သိမ်းခြင်းဆိုင်ရာ ဥပဒေ အခြေခံ",
    "ImageIds": ["attThjBg8RxAsHPBt/png"]
  }
]
